<svg xmlns="http://www.w3.org/2000/svg" width="230.898" height="204.958" viewBox="0 0 230.898 204.958">
  <g id="Mobile_App_Rating" data-name="Mobile App Rating" transform="translate(-553.573 -251)">
    <g id="Group_2166" data-name="Group 2166" transform="translate(553.573 251)">
      <path id="Path_7029" data-name="Path 7029" d="M701.625,411.991c23.323,21.878,39,11.374,46.655.929,18.652-25.434,5.571-31.1,37.6-39s32.264-53.155,6.267-71.26-36.409-2.62-43.173-31.1c-8.82-37.138-61.511,24.837-48.048,54.547S675.4,387.387,701.625,411.991Z" transform="translate(-632.227 -256.126)" fill="#f3eff8"/>
      <circle id="Ellipse_167" data-name="Ellipse 167" cx="12.65" cy="12.65" r="12.65" transform="translate(124.526 4.41)" fill="#f3eff8"/>
      <circle id="Ellipse_168" data-name="Ellipse 168" cx="3.859" cy="3.859" r="3.859" transform="translate(150.607 37.4) rotate(-45)" fill="#f3eff8"/>
      <path id="Path_7030" data-name="Path 7030" d="M888.362,252.538A1.538,1.538,0,1,1,886.824,251,1.538,1.538,0,0,1,888.362,252.538Z" transform="translate(-741.611 -251)" fill="#f3eff8"/>
      <circle id="Ellipse_169" data-name="Ellipse 169" cx="2.785" cy="2.785" r="2.785" transform="translate(150.407 1.161)" fill="#f3eff8"/>
      <path id="Path_7031" data-name="Path 7031" d="M911.622,278.632a1.08,1.08,0,1,1-1.528,0A1.08,1.08,0,0,1,911.622,278.632Z" transform="translate(-755.494 -266.484)" fill="#f3eff8"/>
      <ellipse id="Ellipse_170" data-name="Ellipse 170" cx="109.094" cy="7.66" rx="109.094" ry="7.66" transform="translate(2.897 189.638)" fill="#d0d2d3"/>
      <g id="Group_2162" data-name="Group 2162" transform="translate(0 89.473)">
        <g id="Group_2160" data-name="Group 2160" transform="translate(0.993)">
          <g id="Group_2152" data-name="Group 2152" transform="translate(11.719 12.813)">
            <path id="Path_7032" data-name="Path 7032" d="M588.832,575.16l-1.86.2c-2.8-26.186.305-35.909,2.357-42.343,1.64-5.143,2.63-8.246-.372-16.439-6.963-19-6.014-29.005-5.97-29.422l1.861.194c-.01.1-.926,10.055,5.865,28.584,3.224,8.793,2.1,12.317.4,17.649C589.107,539.867,586.079,549.365,588.832,575.16Z" transform="translate(-582.92 -487.154)" fill="#adadea"/>
          </g>
          <g id="Group_2153" data-name="Group 2153" transform="translate(7.253)">
            <path id="Path_7033" data-name="Path 7033" d="M583.256,464.064c-.167,3.44-5.7,7.529-5.7,7.529s-5.11-4.6-4.943-8.044,2.684-6.114,5.622-5.971S583.423,460.625,583.256,464.064Z" transform="translate(-572.611 -457.572)" fill="#00aab4"/>
            <path id="Path_7034" data-name="Path 7034" d="M582.769,465.788a.234.234,0,0,0-.33-.03l-2.4,1.984.167-3.441a.234.234,0,1,0-.467-.023l-.3,6.148-3.151-1.916a.234.234,0,0,0-.243.4l3.368,2.047-.208,4.3a.234.234,0,1,0,.467.023l.334-6.9,2.726-2.258A.235.235,0,0,0,582.769,465.788Z" transform="translate(-574.497 -461.247)" fill="#adadea"/>
          </g>
          <g id="Group_2154" data-name="Group 2154" transform="translate(15.218 17.044)">
            <path id="Path_7035" data-name="Path 7035" d="M600.671,505.873c-1.929,2.853-8.78,3.474-8.78,3.474s-1.975-6.588-.046-9.442,5.469-3.83,7.906-2.182S602.6,503.02,600.671,505.873Z" transform="translate(-591 -496.922)" fill="#00aab4"/>
            <path id="Path_7036" data-name="Path 7036" d="M600.041,507.011a.234.234,0,0,0-.266-.2l-3.078.451,1.93-2.854a.234.234,0,1,0-.387-.262l-3.448,5.1-1.7-3.274a.234.234,0,1,0-.415.216l1.815,3.5-2.775,4.041a.234.234,0,1,0,.387.262l4.236-6.2,3.5-.513A.235.235,0,0,0,600.041,507.011Z" transform="translate(-591.384 -500.96)" fill="#adadea"/>
          </g>
          <g id="Group_2155" data-name="Group 2155" transform="translate(0 19.272)">
            <path id="Path_7037" data-name="Path 7037" d="M559.83,512.431c3.155,1.381,9.277-1.755,9.277-1.755s-1.851-6.624-5.006-8.005-6.669-.315-7.849,2.38S556.675,511.05,559.83,512.431Z" transform="translate(-555.865 -502.067)" fill="#00aab4"/>
            <path id="Path_7038" data-name="Path 7038" d="M562.985,512.747a.234.234,0,0,1,.12-.309l2.843-1.264-3.156-1.381a.234.234,0,1,1,.188-.428l5.639,2.468-.314-3.675a.234.234,0,0,1,.466-.039l.336,3.927,4.505,1.933a.234.234,0,0,1-.188.429l-6.894-2.978-3.234,1.438A.235.235,0,0,1,562.985,512.747Z" transform="translate(-559.712 -505.376)" fill="#adadea"/>
          </g>
          <g id="Group_2156" data-name="Group 2156" transform="translate(16.917 61.809)">
            <path id="Path_7039" data-name="Path 7039" d="M606.108,610.379c-2.911,1.84-9.436-.336-9.436-.336s.831-6.828,3.742-8.668,6.546-1.317,8.118,1.169S609.019,608.539,606.108,610.379Z" transform="translate(-595.915 -600.275)" fill="#00aab4"/>
            <path id="Path_7040" data-name="Path 7040" d="M605.349,611.357a.234.234,0,0,0-.164-.287l-3-.821,2.912-1.841a.234.234,0,1,0-.25-.4l-5.2,3.289-.243-3.68a.234.234,0,0,0-.467.031l.26,3.933-4.162,2.59a.234.234,0,0,0,.25.4l6.367-3.983,3.414.934A.234.234,0,0,0,605.349,611.357Z" transform="translate(-594.923 -604.316)" fill="#adadea"/>
          </g>
          <g id="Group_2157" data-name="Group 2157" transform="translate(2.097 66.246)">
            <path id="Path_7041" data-name="Path 7041" d="M564.231,620.755c3.035,1.63,9.388-1,9.388-1s-1.312-6.752-4.346-8.382-6.623-.85-8.015,1.742S561.2,619.125,564.231,620.755Z" transform="translate(-560.706 -610.518)" fill="#00aab4"/>
            <path id="Path_7042" data-name="Path 7042" d="M567.7,621.4a.234.234,0,0,1,.143-.3l2.935-1.031-3.035-1.63a.234.234,0,0,1,.221-.412l5.422,2.912-.018-3.688a.234.234,0,0,1,.468,0l.019,3.942,4.335,2.288a.234.234,0,0,1-.221.412l-6.633-3.522L568,621.545A.235.235,0,0,1,567.7,621.4Z" transform="translate(-564.628 -614.203)" fill="#adadea"/>
          </g>
          <g id="Group_2158" data-name="Group 2158" transform="translate(21.016 42.812)">
            <path id="Path_7043" data-name="Path 7043" d="M615.514,566.356c-2.761,2.059-9.434.388-9.434.388s.3-6.871,3.066-8.93,6.425-1.815,8.184.544S618.275,564.3,615.514,566.356Z" transform="translate(-605.346 -556.417)" fill="#00aab4"/>
            <path id="Path_7044" data-name="Path 7044" d="M614.551,567.732a.234.234,0,0,0-.186-.274l-3.055-.588,2.762-2.059a.234.234,0,0,0-.279-.375l-4.935,3.679-.525-3.65a.234.234,0,1,0-.463.067l.561,3.9-3.951,2.9a.234.234,0,1,0,.279.375l6.042-4.46,3.475.669A.235.235,0,0,0,614.551,567.732Z" transform="translate(-604.386 -560.865)" fill="#adadea"/>
          </g>
          <g id="Group_2159" data-name="Group 2159" transform="translate(6.862 40.249)">
            <path id="Path_7045" data-name="Path 7045" d="M574.757,560.567c2.878,1.892,9.44-.168,9.44-.168s-.709-6.842-3.586-8.734-6.521-1.434-8.138,1.024S571.88,558.674,574.757,560.567Z" transform="translate(-571.707 -550.499)" fill="#00aab4"/>
            <path id="Path_7046" data-name="Path 7046" d="M578.328,561.634a.234.234,0,0,1,.17-.284l3.015-.767-2.879-1.893a.234.234,0,0,1,.257-.391l5.143,3.382.309-3.675a.234.234,0,0,1,.466.039l-.33,3.928,4.115,2.664a.234.234,0,0,1-.257.391l-6.294-4.1-3.43.873A.235.235,0,0,1,578.328,561.634Z" transform="translate(-575.456 -554.633)" fill="#adadea"/>
          </g>
        </g>
        <g id="Group_2161" data-name="Group 2161" transform="translate(0 43.846)">
          <path id="Path_7047" data-name="Path 7047" d="M593.86,576c-2.716,8.7-3.2,11.615-3.092,23.021s1.824,8.217-4.178,9.972-11.03,12.6-11.03,12.6a26.19,26.19,0,0,1-3.774.836c-.292.042-.585.084-.863.1-1.421.111-2.7-.055-2.98-.919a21.706,21.706,0,0,0-6.95-10.208c-4.331-3.342.362-8.44-3.579-15.64s-6.364-12.019.46-12.1a3.355,3.355,0,0,1,.529.042,6.3,6.3,0,0,1,3.161,1.56,11.939,11.939,0,0,1,1.3,1.24c.223.223.446.46.655.71.1.126.209.251.32.39a35.642,35.642,0,0,1,2.785,4.053,70.716,70.716,0,0,1,3.732,7.186c1,2.215,1.6,3.774,1.6,3.774a8.136,8.136,0,0,0,.348-.752v-.014a10.451,10.451,0,0,0-.028-7.883,9.869,9.869,0,0,0-.571-1.156c-.473-.808-.863-1.532-1.156-2.173-.028-.014-.028-.028-.028-.055a.056.056,0,0,1-.028-.056,5.421,5.421,0,0,1-.306-.654,3.671,3.671,0,0,1-.348-2.521,2.607,2.607,0,0,1,1.142-1.323,10.63,10.63,0,0,1,2.006-.919c.209-.084.431-.153.655-.223.069-.028.153-.056.223-.084a5.934,5.934,0,0,0,2.869-2.813c.139-.237.292-.473.418-.738.7-1.226,1.379-2.7,2.117-4.3a67.152,67.152,0,0,1,4.373-8.245,29.254,29.254,0,0,1,2.98-3.872h.014c.07-.07.153-.153.223-.237a20.916,20.916,0,0,1,2.743-2.437,18.53,18.53,0,0,1,2.6-1.685C604.055,554.131,596.576,567.306,593.86,576Z" transform="translate(-553.573 -558.802)" fill="#00aab4"/>
          <path id="Path_7048" data-name="Path 7048" d="M601.936,582.583a47.268,47.268,0,0,0-7.284,11.546c-.125.237-.237.473-.348.71-.822,1.727-1.574,3.468-2.3,5.222-1.114,2.716-2.145,5.46-3.147,8.217-1.629,4.541-3.092,9.164-4.457,13.8-1.379,4.568-2.674,9.192-3.8,13.829-.292.042-.585.084-.864.1-.417-2.34-.905-4.693-1.406-7.033s-1.086-4.693-1.727-7.005-1.365-4.61-2.215-6.866a24.347,24.347,0,0,0-3.3-6.379,23.406,23.406,0,0,1,3.607,6.267,65.223,65.223,0,0,1,2.437,6.824c1.211,4.039,2.242,8.119,3.064,12.27q.585-2.382,1.212-4.763c.167-.668.348-1.337.529-1.992.5-1.852,1.017-3.691,1.546-5.529,1.406-4.638,2.924-9.261,4.6-13.816.905-2.479,1.866-4.93,2.925-7.339.877-2.047,1.81-4.053,2.8-6.044.209-.418.418-.822.641-1.225a57.888,57.888,0,0,1,2.953-5.111A31.887,31.887,0,0,1,601.936,582.583Z" transform="translate(-563.502 -572.283)" fill="#fff"/>
        </g>
      </g>
      <g id="Group_2165" data-name="Group 2165" transform="translate(180.911 95.515)">
        <g id="Group_2163" data-name="Group 2163" transform="translate(21.951 11.233)">
          <path id="Path_7049" data-name="Path 7049" d="M1028.416,520.443s6.779-4.646,6.544-9.743-.823-16.767,7.407-12.207,4.468,11.8,4,21.194,1.176,12.207,3.41,18.645-15.049,5.634-19.516,16.365S1015.053,524.15,1028.416,520.443Z" transform="translate(-1021.937 -497.457)" fill="#00aab4"/>
        </g>
        <g id="Group_2164" data-name="Group 2164">
          <path id="Path_7050" data-name="Path 7050" d="M986.515,546.117c13.95,0,20.747-4.292,16.633-11.446s-3.935-5.366-.179-13.414,5.723-8.585-1.252-14.487-6.076-13.414-5.274-24.145-14.043-15.739-16.725-5.545-9.479,11.268-6.438,19.674,9.479,12.877,6.8,19.853-12.52,11.268-7.333,19.853A20.436,20.436,0,0,0,986.515,546.117Z" transform="translate(-971.256 -471.523)" fill="#00aab4"/>
        </g>
        <path id="Path_7051" data-name="Path 7051" d="M1008.777,557.2l-.547-.924-8.939,5.289V536.635l6.877-5.829-.694-.82-6.183,5.241v-21.15h-1.073V523.2l-8.188-5.675-.612.882,8.8,6.1v30.439l-8.813-6.122-.613.883,9.426,6.547v36.115h1.073V562.808Z" transform="translate(-981.196 -495.646)" fill="#e6e9f8"/>
      </g>
      <path id="Path_7052" data-name="Path 7052" d="M938.7,657.363a271.144,271.144,0,0,0,40.26,0s6.869-3.339,4.675-5.247-8.682,1.336-11.544.954,0-4.484,3.435-4.961,7.632-9.826,1.908-8.682-12.116,6.392-11.066,2,10.59-4.484,10.59-8.682-7.537-10.017-9.636-5.82-7.06,12.784-9.445,9.826-10.876-8.3-11.925-5.438,2,5.533,2,7.06-4.293-1.526-5.533-4.007-4.675-1.049-4.293,2,6.583,8.777,6.3,11.162-3.816,5.915-7.251,2.385S929.162,655.359,938.7,657.363Z" transform="translate(-768.664 -463.279)" fill="#d70b8c"/>
      <path id="Path_7053" data-name="Path 7053" d="M762.974,369.97l.638,3.371a.358.358,0,0,0,.285.285l3.371.638-3.371.638a.357.357,0,0,0-.285.285l-.638,3.371-.638-3.371a.357.357,0,0,0-.285-.285l-3.371-.638,3.371-.638a.358.358,0,0,0,.285-.285Z" transform="translate(-669.842 -318.44)" fill="#e6e9f8"/>
      <path id="Path_7054" data-name="Path 7054" d="M800.218,342.627l.638,3.371a.357.357,0,0,0,.285.285l3.371.638-3.371.638a.357.357,0,0,0-.285.285l-.638,3.371-.638-3.371a.357.357,0,0,0-.285-.285l-3.371-.638,3.371-.638a.357.357,0,0,0,.285-.285Z" transform="translate(-690.954 -302.94)" fill="#e6e9f8"/>
      <path id="Path_7055" data-name="Path 7055" d="M761.407,310.07l1.082,5.717a.607.607,0,0,0,.484.483l5.717,1.082-5.717,1.082a.607.607,0,0,0-.484.484l-1.082,5.717-1.082-5.717a.607.607,0,0,0-.484-.484l-5.717-1.082,5.717-1.082a.607.607,0,0,0,.484-.483Z" transform="translate(-667.259 -284.485)" fill="#e6e9f8"/>
    </g>
    <g id="Group_2176" data-name="Group 2176" transform="translate(582.277 288.833)">
      <path id="Path_7056" data-name="Path 7056" d="M929.875,417.932l-2.5-1.876-11.195-11.574-3.231,2.185,10.074,14.057a25.382,25.382,0,0,0,2.221,2.231C926.176,420.832,928.426,418.967,929.875,417.932Z" transform="translate(-785.997 -375.837)" fill="#edb6a4"/>
      <path id="Path_7057" data-name="Path 7057" d="M715.085,437.226l-17.365,8.356-4.388-.813c-.1,1.625-.149,4.448-1.226,6.572a14.172,14.172,0,0,0,5.121-.087c2.48-.348,11.623-6.495,18.39-10.483Z" transform="translate(-660.807 -394.398)" fill="#edb6a4"/>
      <g id="Group_2171" data-name="Group 2171" transform="translate(28.368)">
        <path id="Path_7058" data-name="Path 7058" d="M799.181,379.536l-66.042,66.041a4.1,4.1,0,0,1-5.8,0L694,412.235a4.107,4.107,0,0,1,0-5.8l66.042-66.042a4.012,4.012,0,0,1,.933-.7c-.339-.576-.737-1.26-.737-1.26l3.465.826a4.108,4.108,0,0,1,2.139,1.129l33.342,33.342A4.1,4.1,0,0,1,799.181,379.536Z" transform="translate(-689.568 -338.399)" fill="#58595b"/>
        <path id="Path_7059" data-name="Path 7059" d="M719.883,444.728l-33.342-33.342a4.1,4.1,0,0,1,0-5.8l66.04-66.04a4.1,4.1,0,0,1,5.8,0l33.342,33.342a4.1,4.1,0,0,1,0,5.8l-66.04,66.039A4.1,4.1,0,0,1,719.883,444.728Z" transform="translate(-685.34 -338.347)" fill="#231f20"/>
        <path id="Rectangle_827" data-name="Rectangle 827" d="M3.156,0h41.3a3.156,3.156,0,0,1,3.156,3.156V80.9a3.155,3.155,0,0,1-3.155,3.155H3.155A3.155,3.155,0,0,1,0,80.9V3.156A3.156,3.156,0,0,1,3.156,0Z" transform="translate(67.12 6.798) rotate(45)" fill="#e6e9f8"/>
        <path id="Path_7060" data-name="Path 7060" d="M907.115,453.375l-.09-.066a.474.474,0,0,1,.006-.738l3.993-3.993a.681.681,0,0,1,.849-.117l.09.066a.474.474,0,0,1-.006.738l-3.993,3.993A.681.681,0,0,1,907.115,453.375Z" transform="translate(-810.908 -400.71)" fill="#393768"/>
        <path id="Path_7061" data-name="Path 7061" d="M884.582,472.289h0a.525.525,0,0,1,.007-.816l6.655-6.655a.753.753,0,0,1,.939-.129h0a.524.524,0,0,1-.006.816l-6.655,6.655A.753.753,0,0,1,884.582,472.289Z" transform="translate(-798.176 -409.903)" fill="#393768"/>
        <circle id="Ellipse_171" data-name="Ellipse 171" cx="3.362" cy="3.362" r="3.362" transform="translate(17.61 83.248)" fill="#393768"/>
        <path id="Path_7062" data-name="Path 7062" d="M883.677,384.266l-6.362-6.362a.825.825,0,0,1,0-1.168h0a.825.825,0,0,1,1.168,0l6.362,6.362a.825.825,0,0,1,0,1.168h0A.825.825,0,0,1,883.677,384.266Z" transform="translate(-794.028 -359.972)" fill="#393768"/>
        <g id="Group_2170" data-name="Group 2170" transform="translate(45.492 23.605)">
          <g id="Group_2167" data-name="Group 2167" transform="translate(0 0)">
            <rect id="Rectangle_828" data-name="Rectangle 828" width="11.132" height="11.132" rx="3.046" transform="matrix(0.707, 0.707, -0.707, 0.707, 10.634, 0)" fill="#009ddc"/>
            <path id="Path_7063" data-name="Path 7063" d="M792.719,419.8l-2.1-2.1a.852.852,0,0,1,0-1.2h0a.852.852,0,0,1,1.205,0l2.1,2.1a.851.851,0,0,1,0,1.2h0A.852.852,0,0,1,792.719,419.8Z" transform="translate(-790.371 -406.11)" fill="#d70b8c"/>
            <path id="Path_7064" data-name="Path 7064" d="M800.868,425.516l-.395.774a.062.062,0,0,0,.012.073l.615.615a.063.063,0,0,1-.054.106l-.859-.136a.062.062,0,0,0-.065.033l-.395.774a.062.062,0,0,1-.117-.019l-.136-.858a.063.063,0,0,0-.052-.052l-.858-.136a.062.062,0,0,1-.019-.117l.774-.395a.064.064,0,0,0,.033-.065l-.136-.858a.063.063,0,0,1,.106-.054l.614.615a.063.063,0,0,0,.073.011l.774-.395A.063.063,0,0,1,800.868,425.516Z" transform="translate(-794.985 -411.176)" fill="#ffc10d"/>
          </g>
          <g id="Group_2168" data-name="Group 2168" transform="translate(10.378 10.378)">
            <rect id="Rectangle_829" data-name="Rectangle 829" width="11.132" height="11.132" rx="3.046" transform="translate(10.634 0) rotate(45)" fill="#009ddc"/>
            <path id="Path_7065" data-name="Path 7065" d="M816.681,443.761l-2.1-2.1a.852.852,0,0,1,0-1.205h0a.852.852,0,0,1,1.2,0l2.1,2.1a.852.852,0,0,1,0,1.2h0A.852.852,0,0,1,816.681,443.761Z" transform="translate(-814.332 -430.072)" fill="#d70b8c"/>
            <path id="Path_7066" data-name="Path 7066" d="M824.829,449.478l-.395.774a.062.062,0,0,0,.011.073l.615.614a.063.063,0,0,1-.054.106l-.859-.136a.063.063,0,0,0-.065.033l-.395.774a.062.062,0,0,1-.117-.019l-.136-.858a.063.063,0,0,0-.052-.052l-.858-.136a.062.062,0,0,1-.019-.117l.774-.395a.062.062,0,0,0,.033-.065l-.136-.858a.063.063,0,0,1,.106-.054l.615.615a.063.063,0,0,0,.072.012l.774-.395A.063.063,0,0,1,824.829,449.478Z" transform="translate(-818.946 -435.138)" fill="#ffc10d"/>
          </g>
          <g id="Group_2169" data-name="Group 2169" transform="translate(20.757 20.757)">
            <rect id="Rectangle_830" data-name="Rectangle 830" width="11.132" height="11.132" rx="3.046" transform="matrix(0.707, 0.707, -0.707, 0.707, 10.634, 0)" fill="#009ddc"/>
            <path id="Path_7067" data-name="Path 7067" d="M840.642,467.722l-2.1-2.1a.852.852,0,0,1,0-1.2h0a.851.851,0,0,1,1.2,0l2.1,2.1a.851.851,0,0,1,0,1.2h0A.852.852,0,0,1,840.642,467.722Z" transform="translate(-838.294 -454.033)" fill="#d70b8c"/>
            <path id="Path_7068" data-name="Path 7068" d="M848.79,473.439l-.395.774a.062.062,0,0,0,.012.073l.614.615a.063.063,0,0,1-.054.106l-.858-.136a.062.062,0,0,0-.065.033l-.395.774a.063.063,0,0,1-.118-.019l-.136-.858a.062.062,0,0,0-.052-.052l-.858-.136a.062.062,0,0,1-.019-.117l.774-.395a.064.064,0,0,0,.034-.066l-.136-.858a.062.062,0,0,1,.106-.054l.615.615a.062.062,0,0,0,.073.011l.774-.395A.062.062,0,0,1,848.79,473.439Z" transform="translate(-842.907 -459.099)" fill="#ffc10d"/>
          </g>
        </g>
        <rect id="Rectangle_831" data-name="Rectangle 831" width="10.378" height="4.983" rx="2.491" transform="translate(39.916 40.882) rotate(45)" fill="#a8cfef"/>
        <rect id="Rectangle_832" data-name="Rectangle 832" width="37.897" height="19.669" rx="3.633" transform="translate(32.869 47.929) rotate(45)" fill="#d70b8c"/>
        <path id="Path_7069" data-name="Path 7069" d="M861.237,398.611l-1.725,1.724a1.578,1.578,0,0,1-2.225,0l-26.159-26.159a1.568,1.568,0,0,1,0-2.225l1.724-1.725a1.568,1.568,0,0,1,2.225,0l26.159,26.159A1.578,1.578,0,0,1,861.237,398.611Z" transform="translate(-767.721 -356.156)" fill="#009ddc"/>
        <rect id="Rectangle_833" data-name="Rectangle 833" width="5.586" height="7.6" rx="2.793" transform="matrix(0.707, -0.707, 0.707, 0.707, 85.305, 39.918)" fill="#a8cfef"/>
        <path id="Path_7070" data-name="Path 7070" d="M891.549,427.343a1.786,1.786,0,0,0-1.783,1.783,1.761,1.761,0,0,0,1.435,1.727v1.769h.7v-1.769a1.772,1.772,0,0,0-.348-3.51Zm0,2.841a1.066,1.066,0,1,1,0-2.131,1.066,1.066,0,1,1,0,2.131Z" transform="translate(-801.223 -388.796)" fill="#393768"/>
      </g>
      <path id="Path_7071" data-name="Path 7071" d="M674.05,449.185c-.829,2.859-.7,4.43-.464,7.721,2.863.333,7.317,1.436,9.734,1.843,1.077-2.124,1.206-5.6,1.306-7.225C681.251,450.54,675.45,448.852,674.05,449.185Z" transform="translate(-650.208 -401.153)" fill="#80298f"/>
      <g id="Group_2172" data-name="Group 2172" transform="translate(0 149.653)">
        <path id="Path_7072" data-name="Path 7072" d="M627.953,686.223s-.655,2.044-.25,2.86-5.54-.638-5.54-.638,2.464-2.66,2.074-4.195S627.953,686.223,627.953,686.223Z" transform="translate(-621.159 -683.861)" fill="#edb6a4"/>
        <path id="Path_7073" data-name="Path 7073" d="M631.391,700.291l-11.324-3.8a3.39,3.39,0,0,1,1.247-3.71,10.689,10.689,0,0,0,5.373.945,20.942,20.942,0,0,0,5.2,5.1C632.582,699.435,632.258,699.9,631.391,700.291Z" transform="translate(-619.886 -688.915)" fill="#ad92ea"/>
        <rect id="Rectangle_834" data-name="Rectangle 834" width="11.965" height="0.512" transform="translate(11.342 11.862) rotate(-161.431)" fill="#a8cfef"/>
      </g>
      <g id="Group_2173" data-name="Group 2173" transform="translate(24.616 151.504)">
        <path id="Path_7074" data-name="Path 7074" d="M683.282,689.721s-.216,2.136.35,2.85-5.552.527-5.552.527,1.858-3.114,1.158-4.534S683.282,689.721,683.282,689.721Z" transform="translate(-677.472 -688.136)" fill="#edb6a4"/>
        <path id="Path_7075" data-name="Path 7075" d="M688.967,702.764,677.1,701.4a3.39,3.39,0,0,1,.449-3.888,10.689,10.689,0,0,0,5.453-.192,20.943,20.943,0,0,0,6.143,3.91C689.955,701.679,689.735,702.2,688.967,702.764Z" transform="translate(-676.678 -693.339)" fill="#ad92ea"/>
        <rect id="Rectangle_835" data-name="Rectangle 835" width="11.965" height="0.512" transform="translate(12.231 9.934) rotate(-173.419)" fill="#a8cfef"/>
      </g>
      <path id="Path_7076" data-name="Path 7076" d="M645.623,555.9l-.376,2.4-2.354,15.083-1.629,10.417-11.086,30.667-.836-.125-4.039-.6-.39-.056L631.7,585l-1.63-24.762-.083-1.323-.028-.39,3.913-.655,3.524-.6Z" transform="translate(-622.718 -461.669)" fill="#393768"/>
      <path id="Path_7077" data-name="Path 7077" d="M664.061,614.791l5.283.426,1.648-32.927L668.3,555.066l-16.009-.238,9.471,27.719Z" transform="translate(-638.236 -461.063)" fill="#393768"/>
      <path id="Path_7078" data-name="Path 7078" d="M656.836,495.19c.084.334-.488.682-1.5,1.017a47.683,47.683,0,0,1-7.646,1.546c-2.367.334-4.916.6-7.242.78-.626.042-1.239.07-1.824.112a.019.019,0,0,0-.028,0c-2.925.139-5.279.084-6.17-.265-.278-.112-.4-.237-.39-.4.669-14.233-1.866-24.525-2.6-31.67a22.253,22.253,0,0,1-.042-5.766c.042-.25.1-.487.153-.724a8.813,8.813,0,0,1,.432-1.337,6.011,6.011,0,0,1,.654-1.17v-.014h.014a24.739,24.739,0,0,1,6.156-4.3,40.8,40.8,0,0,1,8.008-2.967c1.058-.292,2.159-.571,3.3-.822a4.351,4.351,0,0,1,1.337-.084c.014-.014.014-.014.028,0a4.253,4.253,0,0,1,3.3,2.173,24.076,24.076,0,0,1,2.479,6.838,38.508,38.508,0,0,1,.724,5.724c.056,1.059.083,2.117.083,3.189,0,.641-.014,1.281-.028,1.922v.028c-.042,2.061-.167,4.122-.307,6.169C655.235,482.725,654.594,489.967,656.836,495.19Z" transform="translate(-625.157 -401.13)" fill="#80298f"/>
      <path id="Path_7079" data-name="Path 7079" d="M645.406,448.864c1.561,2.444,10.393-.7,8.66-3.014-1.43-.755-2.374-2.642-3.275-4.631l-6.047.415C645.8,443.881,646.747,446.86,645.406,448.864Z" transform="translate(-633.96 -396.662)" fill="#e0a494"/>
      <path id="Path_7080" data-name="Path 7080" d="M642.19,429.974c-.357.89,5.671,1.61,5.925,1.172,1.653-1.094,1.8-9.525.681-12.381l-9.807-.359-1.483,6.942Z" transform="translate(-629.857 -383.729)" fill="#edb6a4"/>
      <path id="Path_7081" data-name="Path 7081" d="M716.714,476.178a4.652,4.652,0,0,1,2.4-3.394c.68-.168.709.049.665.643-.156.5-.151.358-.519.848a13.3,13.3,0,0,0,2.885-.576c.593-.067.335,1.917.184,2.479-.316.862-.36,1.547-1.35,2.149a7.281,7.281,0,0,1-3.935.351Z" transform="translate(-674.757 -414.524)" fill="#edb6a4"/>
      <path id="Path_7082" data-name="Path 7082" d="M641.358,419.05s5.969.307,7.993-2.225.884-5.184-1.4-5-2.174,2.121-4.657,1.045-7.138,2.648-7.022,5.333c.238,5.5,1.708,8.13,5.516,8.774,1.059.179-.449-3.018-1.749-3.741-.968-.538-.719-2.995.24-2.163s.585,1.94,1.017,1.145S641.358,419.05,641.358,419.05Z" transform="translate(-629.153 -379.994)" fill="#393768"/>
      <path id="Path_7083" data-name="Path 7083" d="M679.419,480.231l-24.2,2.763-2.517-1.443a23.863,23.863,0,0,1-1.777,6.115c2.95,1.045,5.678,1.849,5.731,1.575,6.225-.847,14.651-3.339,23.132-6.209Z" transform="translate(-637.462 -418.777)" fill="#edb6a4"/>
      <path id="Path_7084" data-name="Path 7084" d="M641.156,474.285c-.042.223-.1.473-.167.738a59.572,59.572,0,0,1-2.242,6.044c-.269.178-9.016-3.313-9.414-4.039a.247.247,0,0,1-.1-.07,18.743,18.743,0,0,1,.056-5.7c.042-.25.1-.487.153-.724a8.82,8.82,0,0,1,.432-1.337,7.917,7.917,0,0,1,.654-1.17l.014-.014A94.176,94.176,0,0,1,641.156,474.285Z" transform="translate(-625.061 -411.854)" fill="#80298f"/>
      <g id="Group_2174" data-name="Group 2174" transform="translate(131.014 149.67)">
        <path id="Path_7085" data-name="Path 7085" d="M937.845,685.434s.21,2.066-.338,2.756,5.369.509,5.369.509-1.8-3.011-1.12-4.385S937.845,685.434,937.845,685.434Z" transform="translate(-930.912 -683.901)" fill="#edb6a4"/>
        <path id="Path_7086" data-name="Path 7086" d="M922.993,698.047l11.476-1.324a3.278,3.278,0,0,0-.434-3.76,10.347,10.347,0,0,1-5.273-.185,20.25,20.25,0,0,1-5.94,3.781C922.039,697,922.251,697.5,922.993,698.047Z" transform="translate(-922.327 -688.933)" fill="#e6e9f8"/>
        <rect id="Rectangle_836" data-name="Rectangle 836" width="11.571" height="0.495" transform="translate(0.667 9.114) rotate(-6.582)" fill="#a8cfef"/>
      </g>
      <g id="Group_2175" data-name="Group 2175" transform="translate(155.976 148.432)">
        <path id="Path_7087" data-name="Path 7087" d="M993.857,683.041s.471,2.022.016,2.776,5.39-.18,5.39-.18-2.166-2.757-1.669-4.206S993.857,683.041,993.857,683.041Z" transform="translate(-987.831 -681.041)" fill="#edb6a4"/>
        <path id="Path_7088" data-name="Path 7088" d="M980.733,696.42l11.213-2.776a3.277,3.277,0,0,0-.91-3.674,10.342,10.342,0,0,1-5.253.488,20.269,20.269,0,0,1-5.411,4.508C979.653,695.5,979.928,695.976,980.733,696.42Z" transform="translate(-979.957 -686.103)" fill="#e6e9f8"/>
        <rect id="Rectangle_837" data-name="Rectangle 837" width="11.571" height="0.495" transform="matrix(0.971, -0.24, 0.24, 0.971, 0.777, 10.317)" fill="#a8cfef"/>
      </g>
      <path id="Path_7089" data-name="Path 7089" d="M945.077,544.284c-.195.46-.376.905-.571,1.365-1.462,3.44-2.925,6.8-4.4,9.971a119.994,119.994,0,0,1-8.621,16.072l1.992,32.046-.613.056-3.816.362-.7.07-6.462-33.118,6.852-28.118.376-1.546.585-2.4,2.646.905,9.4,3.2Z" transform="translate(-791.064 -452.118)" fill="#393768"/>
      <path id="Path_7090" data-name="Path 7090" d="M976.172,608.479l5.735-.683-8.6-32.057c2.285-9.96,4.085-19.373,3.57-26.175l-12.942-1.483v30.026Z" transform="translate(-814.9 -457.239)" fill="#393768"/>
      <path id="Path_7091" data-name="Path 7091" d="M962.48,491.529c-.293,0-.6-.014-.891-.014-2.953-.042-5.78-.084-8.607-.348a43.909,43.909,0,0,1-4.4-.585,40.356,40.356,0,0,1-8.983-2.716,20.9,20.9,0,0,1-2.005-.905c-.25-.1-.5-.223-.752-.348,6-9.415,5.807-16.893,7.576-28.508.014-.014.014-.014.014-.028.292-1.908.641-3.914,1.072-6.072.1-.474.195-.961.306-1.463q.752-3.53,1.894-7.6c1.95.543,3.83,1.031,5.6,1.56a39.929,39.929,0,0,1,5.891,2.131,15.7,15.7,0,0,1,5.849,4.429C969.93,465.764,962.744,473.313,962.48,491.529Z" transform="translate(-799.539 -397.636)" fill="#ffc10d"/>
      <path id="Path_7092" data-name="Path 7092" d="M944.146,456.407c-1.546.084-2.716.167-3.7.223a1.06,1.06,0,0,1-.209.014,21.667,21.667,0,0,1-7.005-.487c-.307-.056-.613-.112-.933-.181-.46-.195-.933-.432-1.42-.7a8.11,8.11,0,0,1-.836-.446c-.014-.014-.014-.014-.028-.014-4.136-2.367-8.941-6.434-13.913-10.989-.209-.167-.4-.362-.612-.557l-.808-.724-.683-.641-1.044-.961,2.59-2.994,1.435.975,2.381,1.643,12.6,8.607,2.967,2.033,7.478-1.072A12.027,12.027,0,0,0,944.146,456.407Z" transform="translate(-785.997 -394.811)" fill="#edb6a4"/>
      <path id="Path_7093" data-name="Path 7093" d="M974.279,436.819l6.48,1.967c-1.233,2.023-1.32,2.75-.754,5.187-1.5,2.272-8.9-.642-6.144-2.717C974.713,439.226,974.541,438.982,974.279,436.819Z" transform="translate(-820.18 -394.168)" fill="#e0a494"/>
      <path id="Path_7094" data-name="Path 7094" d="M969.817,424.584c.44.885,4.614,1.24,9.024,1.02l3.784-10.416-9.007-3.351C969.475,415.841,968.642,423.248,969.817,424.584Z" transform="translate(-817.957 -380.006)" fill="#e0a494"/>
      <path id="Path_7095" data-name="Path 7095" d="M911.011,431.747a8.874,8.874,0,0,0-.415-3.5c-.64-.5-.787-.356-1.322,0,.016.723.028,1.059-.562,1.5-1.143-.5-1.89-2.813-2.108-2.727-.676.331-1.161,1.535-1.53,2.78a5.84,5.84,0,0,0,.37,3.451,6.716,6.716,0,0,0,2.983,1.5Z" transform="translate(-781.474 -388.611)" fill="#edb6a4"/>
      <path id="Path_7096" data-name="Path 7096" d="M971.985,410.846c-1.528.455-.916,2.886-.4,4.568A8.217,8.217,0,0,0,977,415.7c-.131,1.493-.24,3.659-1.041,4.129a2.294,2.294,0,0,0,1.508.907,2.14,2.14,0,0,1,1.538-1.654c.487-.068.57-.033.987.435.5.606.025,1.286-.7,1.567-1.7.573-.488,2.594-.377,3.822a3.521,3.521,0,0,0,3.056-1.143c1.744-2.055,3.056-3.9,2.157-7.2.116-2.759-2-6.077-5.108-6.015C974.88,412.223,974.684,410.106,971.985,410.846Z" transform="translate(-818.913 -379.276)" fill="#393768"/>
      <path id="Path_7097" data-name="Path 7097" d="M950.245,438.747l-4.28-3.213c-1.449,1.035-3.7,2.9-4.63,5.023,2.171,1.979,5.168,4.351,8.159,6.673Z" transform="translate(-802.088 -393.439)" fill="#ffc10d"/>
      <path id="Path_7098" data-name="Path 7098" d="M962.661,477.385a49.792,49.792,0,0,1-5.876,3.381c-1.992.961-8.385-3.075-11.461-.406-3.2,2.773.032,15.49-1.973,19.933a41.1,41.1,0,0,1-2.528,4.445c-.348.682-.627,1.239-1.128,2.228a1.053,1.053,0,0,1-.1.167,2.027,2.027,0,0,1-2.381.641l.376-1.546c-.25-.1-.5-.223-.752-.348,6-9.415,5.807-16.893,7.576-28.508a8.11,8.11,0,0,1-.836-.446c.223.1.5.251.85.418.376.195.849.431,1.406.724.32.069.627.125.933.181a31.868,31.868,0,0,0,7.005.487,1.062,1.062,0,0,0,.209-.014c1.225-.042,2.423-.139,3.7-.223C961.226,478.248,962.507,477.482,962.661,477.385Z" transform="translate(-799.539 -416.903)" opacity="0.05"/>
      <path id="Path_7099" data-name="Path 7099" d="M656.305,491.51a11.435,11.435,0,0,1-2.326,1.142c-.056.014-.1.042-.153.056-1.8.7-10.556,2.841-13.119,1.964s-7.367-1.156-8.412-1.56,1.5,5.919,1.8,8.356-.627,4.693-.919,7.715,2.145,8.3,3.008,10.041a2.839,2.839,0,0,0,.4.627,4.215,4.215,0,0,0,2.284,1.309.019.019,0,0,1,.028,0c.126.014.195.028.195.028s-.236.766-1.866.529a22.586,22.586,0,0,0-4.443.5L632.7,520.9c-.279-.112-.4-.237-.39-.4.669-14.233-1.866-24.525-2.6-31.67a27.725,27.725,0,0,0,3.536,1.865,44.606,44.606,0,0,0,5.6,2.1c.181.042.279.07.279.07l.055-.223v-.028a.082.082,0,0,0,.056.014c.111.056.4.167.78.306.334.112.738.251,1.184.39.237.084.473.167.724.236a.418.418,0,0,0,.111.028c.39.125.78.236,1.156.334.279.07.543.139.78.181.112.014.223.042.334.056h.014c.056,0,.111.014.181.014a50.21,50.21,0,0,0,7.952-1.629c.627-.167,1.226-.32,1.741-.46h.014q.5-.125.919-.251Z" transform="translate(-625.434 -423.647)" opacity="0.05"/>
    </g>
  </g>
</svg>
