<svg xmlns="http://www.w3.org/2000/svg" xmlns:xlink="http://www.w3.org/1999/xlink" width="194.084" height="205.518" viewBox="0 0 194.084 205.518">
  <defs>
    <linearGradient id="linear-gradient" x1="0.5" y1="-0.298" x2="0.5" y2="0.982" gradientUnits="objectBoundingBox">
      <stop offset="0" stop-color="#fff"/>
      <stop offset="0.098" stop-color="#f9f9f9"/>
      <stop offset="0.222" stop-color="#e9e9e9"/>
      <stop offset="0.36" stop-color="#cfcfcf"/>
      <stop offset="0.508" stop-color="#ababab"/>
      <stop offset="0.665" stop-color="#7c7c7c"/>
      <stop offset="0.829" stop-color="#434343"/>
      <stop offset="0.996" stop-color="#010101"/>
      <stop offset="1"/>
    </linearGradient>
    <linearGradient id="linear-gradient-2" x1="-9.759" y1="-2.25" x2="-9.548" y2="-1.85" xlink:href="#linear-gradient"/>
    <linearGradient id="linear-gradient-3" x1="-8.033" y1="-0.116" x2="-7.803" y2="1.236" xlink:href="#linear-gradient"/>
    <linearGradient id="linear-gradient-4" x1="-23.433" y1="-1.743" x2="-24.523" y2="-0.772" xlink:href="#linear-gradient"/>
    <linearGradient id="linear-gradient-5" x1="-8.211" y1="0.392" x2="-8.061" y2="1.106" xlink:href="#linear-gradient"/>
    <linearGradient id="linear-gradient-6" x1="0.466" y1="0.326" x2="0.583" y2="0.888" gradientUnits="objectBoundingBox">
      <stop offset="0" stop-color="#fff"/>
      <stop offset="1"/>
    </linearGradient>
    <linearGradient id="linear-gradient-7" x1="0.172" y1="-0.105" x2="0.646" y2="1.189" xlink:href="#linear-gradient-6"/>
    <linearGradient id="linear-gradient-8" x1="-0.062" y1="0.23" x2="0.967" y2="0.728" xlink:href="#linear-gradient-6"/>
    <linearGradient id="linear-gradient-9" x1="0.522" y1="0.164" x2="0.4" y2="1.034" xlink:href="#linear-gradient-6"/>
  </defs>
  <g id="Mobile_Network" data-name="Mobile Network" transform="translate(-604.721 -257.145)">
    <g id="Group_2136" data-name="Group 2136" transform="translate(622.64 257.145)">
      <path id="Path_6927" data-name="Path 6927" d="M689.5,666.8c-31.63,0-53.407,8.788-28.7,11.8s20.557,11.983,3.174,14.056-2.946,8.281,11.735,8.531c27.075.461,38.065-10.554,52.451-11.476s62.439,8.539,46.891-5.454,30.156-9.669,21.1-13.326C766.587,658.988,689.5,666.8,689.5,666.8Z" transform="translate(-649.241 -495.678)" fill="#eff0f8"/>
      <path id="Path_6928" data-name="Path 6928" d="M690.112,406.225c-35.189-31.759-55.854-76.522-27.675-72.778s15.417-8.694,7.278-18.368-39.949-41.46-7.278-42.5S684.4,298.137,712.383,294.3s44.833-46.01,59.864-35.463-12.459,21.251-1.23,44.622,33.607,19.735,20.309,47.293S763.639,373.093,770.5,388.7c6.177,14.053-2.4,33.243-15.575,36.257C731.116,430.4,690.112,406.225,690.112,406.225Z" transform="translate(-647.989 -257.145)" fill="#eff0f8"/>
      <g id="Group_2129" data-name="Group 2129" transform="translate(45.802 48.061)" opacity="0.5">
        <g id="Group_2117" data-name="Group 2117" transform="translate(0 4.334)">
          <g id="Group_2110" data-name="Group 2110">
            <g id="Group_2109" data-name="Group 2109">
              <path id="Path_6929" data-name="Path 6929" d="M760.2,386.9a1.62,1.62,0,0,1-1.617-1.618h.93a.687.687,0,1,0,.687-.687v-.931a1.618,1.618,0,1,1,0,3.236Z" transform="translate(-758.586 -383.665)" fill="#f9c6b5"/>
            </g>
          </g>
          <g id="Group_2112" data-name="Group 2112" transform="translate(81.739 44.027)">
            <g id="Group_2111" data-name="Group 2111">
              <path id="Path_6930" data-name="Path 6930" d="M959.866,495.544" transform="translate(-958.249 -493.239)" fill="#f9c6b5"/>
              <path id="Path_6931" data-name="Path 6931" d="M957.578,490.908v-.93a1.618,1.618,0,1,1-1.617,1.618" transform="translate(-955.961 -489.978)" fill="#f9c6b5"/>
            </g>
          </g>
          <g id="Group_2114" data-name="Group 2114" transform="translate(70.61 74.839)">
            <g id="Group_2113" data-name="Group 2113">
              <path id="Path_6932" data-name="Path 6932" d="M930.706,567.614A1.62,1.62,0,0,1,929.089,566h.931a.687.687,0,1,0,.687-.687v-.93a1.618,1.618,0,0,1,0,3.236Z" transform="translate(-929.089 -564.378)" fill="#f9c6b5"/>
            </g>
          </g>
          <g id="Group_2116" data-name="Group 2116" transform="translate(64.563 96.762)">
            <g id="Group_2115" data-name="Group 2115">
              <path id="Path_6933" data-name="Path 6933" d="M916.1,620.551a1.62,1.62,0,0,1-1.617-1.618h.93a.687.687,0,1,0,.687-.687v-.93a1.618,1.618,0,1,1,0,3.236Z" transform="translate(-914.487 -617.315)" fill="#f9c6b5"/>
            </g>
          </g>
        </g>
        <g id="Group_2128" data-name="Group 2128" transform="translate(11.201)">
          <g id="Group_2119" data-name="Group 2119" transform="translate(58.254 91.83)">
            <g id="Group_2118" data-name="Group 2118">
              <path id="Path_6934" data-name="Path 6934" d="M927.917,598.177a1.618,1.618,0,1,1,1.618-1.618H928.6a.688.688,0,1,0-.687.687Z" transform="translate(-926.298 -594.941)" fill="#b5eff9"/>
            </g>
          </g>
          <g id="Group_2121" data-name="Group 2121" transform="translate(59.164 65.495)">
            <g id="Group_2120" data-name="Group 2120">
              <path id="Path_6935" data-name="Path 6935" d="M930.113,534.586a1.618,1.618,0,1,1,1.618-1.618h-.93a.688.688,0,1,0-.688.688Z" transform="translate(-928.495 -531.35)" fill="#b5eff9"/>
            </g>
          </g>
          <g id="Group_2123" data-name="Group 2123" transform="translate(56.513 28.93)">
            <g id="Group_2122" data-name="Group 2122">
              <path id="Path_6936" data-name="Path 6936" d="M923.713,446.292a1.618,1.618,0,1,1,1.618-1.618H924.4a.688.688,0,1,0-.687.688Z" transform="translate(-922.095 -443.056)" fill="#b5eff9"/>
            </g>
          </g>
          <g id="Group_2125" data-name="Group 2125" transform="translate(70.188 16.538)">
            <g id="Group_2124" data-name="Group 2124">
              <path id="Path_6937" data-name="Path 6937" d="M955.116,413.134" transform="translate(-955.116 -413.134)" fill="#b5eff9"/>
            </g>
          </g>
          <g id="Group_2127" data-name="Group 2127">
            <g id="Group_2126" data-name="Group 2126">
              <path id="Path_6938" data-name="Path 6938" d="M785.632,373.2" transform="translate(-785.632 -373.199)" fill="#b5eff9"/>
            </g>
          </g>
        </g>
      </g>
      <g id="Group_2135" data-name="Group 2135" transform="translate(101.768 102.492)">
        <g id="Group_2130" data-name="Group 2130" transform="translate(1.06 1.782)">
          <path id="Path_6939" data-name="Path 6939" d="M905.175,554.006c6.842-5.253,9.924-9.3,7.036-13.216s-2.442-4.291.6-8.886-.059-4.862-1.368-7.568,1.316-5.429,2.846-9.176-4.189-8.491-8.007-5.014,1.414,6.259-1.177,10.478-10,5.561-8.315,9.388,7.764,5.389,3.983,9.427-6.316,6.854-2.812,10.672S905.175,554.006,905.175,554.006Z" transform="translate(-896.288 -508.935)" fill="#dde6fc"/>
          <path id="Path_6940" data-name="Path 6940" d="M918.926,527.518q-1.713,12.912-3.324,25.823c-.549,4.3-1.167,8.608-1.572,12.911-.373,4.3-.769,8.606-.906,12.908h.121c.83-4.3,1.4-8.609,2-12.913.563-4.3.911-8.607,1.329-12.91q1.289-12.91,2.477-25.819Z" transform="translate(-906.152 -519.822)" fill="#8497fa"/>
        </g>
        <g id="Group_2132" data-name="Group 2132" transform="translate(5.611)">
          <path id="Path_6941" data-name="Path 6941" d="M913.8,529.072a9.864,9.864,0,0,0,2.894.68,13.254,13.254,0,0,1,5.584,1.721,13.591,13.591,0,0,1,1.669-6.381c.116-.215.253-.416.376-.627-.526-1.683-2.049-2.826-3.4-3.836a7.582,7.582,0,0,1-1.975-1.819.3.3,0,0,1,.136-.4.308.308,0,0,1,.422.082,7.352,7.352,0,0,0,1.844,1.673,9.9,9.9,0,0,1,3.389,3.6,33.009,33.009,0,0,1,5.3-6.333.234.234,0,0,1-.106-.256,7.784,7.784,0,0,0-.866-4.727,6.829,6.829,0,0,1-.7-2.363.315.315,0,0,1,.291-.3.248.248,0,0,1,.291.238,6.59,6.59,0,0,0,.663,2.182,8.684,8.684,0,0,1,.934,4.736c.83-.769,1.685-1.513,2.557-2.237a.311.311,0,0,1,.174-.177c.022-.009.045-.013.067-.021q1.318-1.086,2.66-2.127c-.733.661-1.47,1.32-2.2,1.982a12.051,12.051,0,0,1,5.1-.034,8.738,8.738,0,0,0,2.5.158.253.253,0,0,1,.316.21.309.309,0,0,1-.264.316,9.046,9.046,0,0,1-2.7-.153,10.4,10.4,0,0,0-5.306.163.293.293,0,0,1-.3-.043.025.025,0,0,1-.006-.011,47.282,47.282,0,0,0-3.5,3.477q-.705.763-1.375,1.554a13.4,13.4,0,0,1,5.262.122,9.345,9.345,0,0,0,2.687.215.271.271,0,0,1,.335.233.334.334,0,0,1-.29.336,9.689,9.689,0,0,1-2.9-.214,11.155,11.155,0,0,0-5.71.081.076.076,0,0,0-.017,0,24.387,24.387,0,0,0-2.956,4.56,14.07,14.07,0,0,0-.719,1.741,13.837,13.837,0,0,1,6.056.8,10.026,10.026,0,0,0,2.921.607.3.3,0,0,1,.332.309.387.387,0,0,1-.373.341,10.39,10.39,0,0,1-3.161-.634,12.548,12.548,0,0,0-5.987-.735c-.133.461-.252.924-.343,1.388a13.756,13.756,0,0,0-.1,3.874,22.838,22.838,0,0,0,.725,3.315,12.465,12.465,0,0,1,4.541-.979,8.737,8.737,0,0,0,2.363-.378.254.254,0,0,1,.345.12.268.268,0,0,1-.168.333,9.058,9.058,0,0,1-2.549.425,11.545,11.545,0,0,0-4.4.96c.368,1.224.8,2.438,1.213,3.659.441,1.338.858,2.7,1.208,4.079a10.95,10.95,0,0,1,3.027-1.758,7.277,7.277,0,0,0,1.714-.911.228.228,0,0,1,.306-.008.191.191,0,0,1-.025.283,7.517,7.517,0,0,1-1.845.994A9.631,9.631,0,0,0,926.672,545a28.83,28.83,0,0,1,.6,3.151,26.759,26.759,0,0,1-.148,8.083,44.793,44.793,0,0,1-6.265,15.524,65.8,65.8,0,0,0,3.416-7.665,35.449,35.449,0,0,0,2.051-7.883,28.679,28.679,0,0,0,0-7.855c-.005-.04-.015-.078-.021-.118a.2.2,0,0,1-.092-.02,7.33,7.33,0,0,0-3.851-.49,6.783,6.783,0,0,1-2.022-.077.177.177,0,0,1-.113-.25.244.244,0,0,1,.285-.132,6.56,6.56,0,0,0,1.875.059,8.389,8.389,0,0,1,3.832.426,42.485,42.485,0,0,0-1.862-6.9l-.1-.318a10.526,10.526,0,0,0-4.755.807,9.193,9.193,0,0,1-2.525.618.227.227,0,0,1-.242-.249.3.3,0,0,1,.3-.252,8.893,8.893,0,0,0,2.336-.587,11.969,11.969,0,0,1,4.712-.873,34.582,34.582,0,0,1-1.732-6.791c-.029-.279-.044-.56-.057-.843-1.511-1.341-3.777-1.679-5.779-1.977a10.189,10.189,0,0,1-3.116-.755.294.294,0,0,1-.084-.443A.391.391,0,0,1,913.8,529.072Z" transform="translate(-910.77 -507.655)" fill="#e6e9f8"/>
          <g id="Group_2131" data-name="Group 2131">
            <path id="Path_6942" data-name="Path 6942" d="M950.245,511.77a.266.266,0,0,0,.382-.164c.9-3.745-1.061-4.673-1.25-6.562-.168-1.668-1.1,2.2-2.079,3.234C946.476,509.144,949.308,511.145,950.245,511.77Z" transform="translate(-930.637 -504.632)" fill="#00aab4"/>
            <path id="Path_6943" data-name="Path 6943" d="M929.348,530.974a.275.275,0,0,0,.3-.323c-1.1-3.8-3.584-3.745-4.791-5.368-1.065-1.433.068,2.494-.368,3.877C924.122,530.32,928.064,530.838,929.348,530.974Z" transform="translate(-917.299 -516.55)" fill="#00aab4"/>
            <path id="Path_6944" data-name="Path 6944" d="M915.835,555.93a.273.273,0,0,0,.132-.448c-3.323-3.038-5.905-1.787-8.1-2.73-1.937-.832,1.49,2.312,1.816,3.823C909.956,557.843,914.4,556.422,915.835,555.93Z" transform="translate(-907.277 -532.743)" fill="#b5eff9"/>
            <path id="Path_6945" data-name="Path 6945" d="M923.137,583.547a.189.189,0,0,0-.091-.328c-3.613-.743-4.931.948-6.879,1.126-1.719.157,2.011.929,2.865,1.764C919.749,586.81,922.324,584.358,923.137,583.547Z" transform="translate(-912.223 -550.564)" fill="#b5eff9"/>
            <path id="Path_6946" data-name="Path 6946" d="M931.523,599.778a.159.159,0,0,0,.019-.279c-2.466-1.394-3.882-.354-5.363-.65-1.307-.26,1.237,1.183,1.647,2.033C928.169,601.594,930.71,600.235,931.523,599.778Z" transform="translate(-918.134 -559.773)" fill="#b5eff9"/>
            <path id="Path_6947" data-name="Path 6947" d="M969.1,519.783a.224.224,0,0,1,.1-.371c3.892-1.53,5.285.02,7.375-.184,1.844-.18-2.174,1.406-3.1,2.476C972.694,522.6,969.963,520.489,969.1,519.783Z" transform="translate(-943.459 -512.892)" fill="#00aab4"/>
            <path id="Path_6948" data-name="Path 6948" d="M955.652,533.669a.243.243,0,0,1,.118-.4c4.218-1.582,5.684.116,7.936-.066,1.988-.161-2.368,1.479-3.391,2.618C959.458,536.778,956.565,534.447,955.652,533.669Z" transform="translate(-935.579 -521.012)" fill="#00aab4"/>
            <path id="Path_6949" data-name="Path 6949" d="M946.458,551.95a.283.283,0,0,1,.193-.434c4.891-1.22,6.231.9,8.737,1,2.212.087-2.839,1.353-4.145,2.5C950.149,555.981,947.338,552.953,946.458,551.95Z" transform="translate(-930.201 -531.878)" fill="#00aab4"/>
            <path id="Path_6950" data-name="Path 6950" d="M944.622,570.247a.2.2,0,0,1,.005-.348c3.244-2.152,4.915-1.075,6.808-1.687,1.67-.54-1.678,1.688-2.282,2.822C948.647,571.986,945.6,570.691,944.622,570.247Z" transform="translate(-929.097 -541.833)" fill="#00aab4"/>
            <path id="Path_6951" data-name="Path 6951" d="M948.831,587.3a.15.15,0,0,1-.106-.249c1.833-2.414,3.474-2.1,4.749-3.049,1.125-.838-.765,1.658-.873,2.631C952.511,587.446,949.728,587.35,948.831,587.3Z" transform="translate(-931.539 -551.032)" fill="#b5eff9"/>
            <path id="Path_6952" data-name="Path 6952" d="M965.245,511.312a.193.193,0,0,0,.286.183c3.5-1.438,3.523-3.355,5.04-4.541,1.339-1.047-2.278.434-3.527.307C966,507.154,965.408,510.294,965.245,511.312Z" transform="translate(-941.237 -505.772)" fill="#00aab4"/>
          </g>
        </g>
        <g id="Group_2134" data-name="Group 2134" transform="translate(14.814 14.61)">
          <path id="Path_6953" data-name="Path 6953" d="M950.759,549.91a9.884,9.884,0,0,0,1.828,2.344,13.25,13.25,0,0,1,3.273,4.841,13.586,13.586,0,0,1,5.3-3.925c.225-.095.458-.165.686-.253.646-1.641.175-3.487-.243-5.119a7.6,7.6,0,0,1-.4-2.656.3.3,0,0,1,.357-.227.308.308,0,0,1,.277.329,7.36,7.36,0,0,0,.388,2.459,9.9,9.9,0,0,1,.382,4.932,33.028,33.028,0,0,1,8.1-1.613.233.233,0,0,1,.079-.266,7.785,7.785,0,0,0,2.289-4.226,6.827,6.827,0,0,1,.937-2.278.316.316,0,0,1,.412-.048.248.248,0,0,1,.077.367,6.59,6.59,0,0,0-.852,2.117,8.687,8.687,0,0,1-2.242,4.275c1.129-.079,2.261-.122,3.395-.14a.312.312,0,0,1,.247-.029c.022.008.043.018.065.025,1.138-.013,2.277-.011,3.405.01-.986.056-1.972.107-2.957.164a12.064,12.064,0,0,1,4,3.174,8.734,8.734,0,0,0,1.85,1.691.253.253,0,0,1,.114.361.31.31,0,0,1-.4.081,9.066,9.066,0,0,1-2.011-1.814,10.4,10.4,0,0,0-4.236-3.2.293.293,0,0,1-.207-.222.024.024,0,0,1,0-.012,47.312,47.312,0,0,0-4.907.515c-.685.1-1.368.217-2.045.348a13.4,13.4,0,0,1,4.023,3.395,9.361,9.361,0,0,0,1.959,1.852.272.272,0,0,1,.115.392.335.335,0,0,1-.437.08,9.691,9.691,0,0,1-2.129-1.987,11.148,11.148,0,0,0-4.5-3.517.063.063,0,0,0-.014-.009,24.378,24.378,0,0,0-5.162,1.7,14.084,14.084,0,0,0-1.651.905,13.832,13.832,0,0,1,4.217,4.42,10.035,10.035,0,0,0,1.9,2.3.3.3,0,0,1,.065.448.386.386,0,0,1-.5.032,10.374,10.374,0,0,1-2.064-2.475,12.55,12.55,0,0,0-4.2-4.326c-.393.276-.775.562-1.137.867a13.724,13.724,0,0,0-2.51,2.952,22.807,22.807,0,0,0-1.514,3.036,12.455,12.455,0,0,1,4.151,2.085,8.739,8.739,0,0,0,2.078,1.186.254.254,0,0,1,.193.309.269.269,0,0,1-.34.154A9.044,9.044,0,0,1,958,564.452a11.54,11.54,0,0,0-4.031-2.01c-.481,1.184-.907,2.4-1.348,3.612-.5,1.319-1.023,2.639-1.616,3.935a10.962,10.962,0,0,1,3.461.528,7.258,7.258,0,0,0,1.906.365.228.228,0,0,1,.243.186.19.19,0,0,1-.2.2,7.511,7.511,0,0,1-2.06-.382,9.625,9.625,0,0,0-3.549-.5,28.9,28.9,0,0,1-1.508,2.831,26.767,26.767,0,0,1-5.183,6.205A44.792,44.792,0,0,1,929.5,587.6a65.815,65.815,0,0,0,7.467-3.83,35.439,35.439,0,0,0,6.54-4.856,28.685,28.685,0,0,0,4.922-6.122c.02-.035.037-.071.058-.1a.2.2,0,0,1-.059-.074,7.329,7.329,0,0,0-2.693-2.8,6.759,6.759,0,0,1-1.528-1.328.177.177,0,0,1,.069-.265.244.244,0,0,1,.3.076A6.577,6.577,0,0,0,946,569.519a8.391,8.391,0,0,1,2.718,2.734,42.453,42.453,0,0,0,2.872-6.54l.118-.314a10.529,10.529,0,0,0-4.21-2.353,9.187,9.187,0,0,1-2.354-1.1.227.227,0,0,1-.033-.345.3.3,0,0,1,.389-.01,8.9,8.9,0,0,0,2.188,1.007,11.971,11.971,0,0,1,4.219,2.274,34.552,34.552,0,0,1,2.908-6.376c.152-.235.316-.465.484-.693-.337-1.992-1.89-3.676-3.263-5.163a10.168,10.168,0,0,1-1.954-2.542.293.293,0,0,1,.211-.4A.39.39,0,0,1,950.759,549.91Z" transform="translate(-929.5 -542.395)" fill="#e6e9f8"/>
          <g id="Group_2133" data-name="Group 2133" transform="translate(13.765)">
            <path id="Path_6954" data-name="Path 6954" d="M1032.68,547.5a.266.266,0,0,0,.4.112c3.046-2.356,2.1-4.306,3.139-5.9.915-1.4-2.236,1.025-3.647,1.216C1031.391,543.087,1032.342,546.421,1032.68,547.5Z" transform="translate(-1003.315 -540.71)" fill="#b5eff9"/>
            <path id="Path_6955" data-name="Path 6955" d="M1004.335,547.634a.275.275,0,0,0,.436-.064c1.522-3.652-.445-5.164-.368-7.186.068-1.784-1.51,1.986-2.717,2.79C1000.674,543.848,1003.421,546.722,1004.335,547.634Z" transform="translate(-985.427 -539.91)" fill="#00aab4"/>
            <path id="Path_6956" data-name="Path 6956" d="M981.136,558.572a.274.274,0,0,0,.384-.267c-.685-4.45-3.481-5.094-4.6-7.2-.988-1.862-.289,2.735-.982,4.117C975.357,556.375,979.713,558.058,981.136,558.572Z" transform="translate(-970.44 -546.209)" fill="#00aab4"/>
            <path id="Path_6957" data-name="Path 6957" d="M969.134,586.189a.189.189,0,0,0,.134-.313c-2.349-2.843-4.436-2.352-6.065-3.435-1.438-.956.984,1.984,1.126,3.171C964.449,586.606,967.992,586.31,969.134,586.189Z" transform="translate(-962.744 -564.718)" fill="#00aab4"/>
            <path id="Path_6958" data-name="Path 6958" d="M966.654,602.628a.159.159,0,0,0,.19-.205c-1.047-2.632-2.8-2.71-3.771-3.869-.855-1.022.222,1.7.009,2.616C962.9,601.941,965.734,602.475,966.654,602.628Z" transform="translate(-962.738 -574.135)" fill="#00aab4"/>
            <path id="Path_6959" data-name="Path 6959" d="M1045.365,564.629c-.033-.157.141-.278.312-.224,3.991,1.248,4.1,3.328,5.861,4.48,1.55,1.016-2.575-.267-3.97-.017C1046.4,569.078,1045.594,565.72,1045.365,564.629Z" transform="translate(-1011.144 -554.253)" fill="#00aab4"/>
            <path id="Path_6960" data-name="Path 6960" d="M1026.163,567.027c-.032-.169.159-.3.342-.236,4.279,1.412,4.355,3.654,6.224,4.924,1.65,1.121-2.772-.332-4.283-.086C1027.179,571.834,1026.386,568.205,1026.163,567.027Z" transform="translate(-999.895 -555.65)" fill="#b5eff9"/>
            <path id="Path_6961" data-name="Path 6961" d="M1007.765,575.2a.283.283,0,0,1,.423-.217c4.575,2.115,4.291,4.608,6.182,6.255,1.669,1.454-3.06-.725-4.8-.648C1008.114,580.658,1007.822,576.537,1007.765,575.2Z" transform="translate(-989.118 -560.442)" fill="#00aab4"/>
            <path id="Path_6962" data-name="Path 6962" d="M993.733,589.761a.2.2,0,0,1,.222-.267c3.877.357,4.5,2.243,6.362,2.953,1.639.627-2.366.263-3.548.768C995.778,593.638,994.213,590.716,993.733,589.761Z" transform="translate(-980.886 -568.959)" fill="#00aab4"/>
            <path id="Path_6963" data-name="Path 6963" d="M985.124,606.9a.15.15,0,0,1,.073-.261c2.942-.731,4.023.542,5.611.6,1.4.053-1.636.812-2.329,1.5C987.9,609.322,985.79,607.5,985.124,606.9Z" transform="translate(-975.823 -578.872)" fill="#00aab4"/>
            <path id="Path_6964" data-name="Path 6964" d="M1044.265,556.857a.193.193,0,0,0,.108.322c3.628,1.074,4.848-.405,6.773-.378,1.7.024-2.047-1.09-2.94-1.972C1047.457,554.089,1045.03,556.166,1044.265,556.857Z" transform="translate(-1010.469 -548.559)" fill="#00aab4"/>
          </g>
        </g>
        <path id="Path_6965" data-name="Path 6965" d="M898.48,603.009c3.7-.009,3.164,6.9,7.915,6.833,5.6-.086,4.042-4.209,13.664-7.2,5.43-2.152,5.011-6.542,1.143-4.8s-8.228,4.769-7.562,1.37,3.608-6.611,11.494-8.864,11.348-8.291,7.509-8.985-9.485,4.128-14.047,8.149-7.8,2.042-4.57-1.423,9.839-5.657,12.9-11.421,1.719-7.15-2.028-7.083-11.2,8.65-12.479,13.184-4.207,6.09-3.721,2.978,2.713-8.709.048-8.566-3.865,4.466-2.81,6.1,1.644,2.978-1.095,4.3-3.728-6.938-5.84-4.864-2.447,9.142,1.1,9.212,5.033,6.192,1.272,7.039-5.677-5.286-7.162-2.461A4.514,4.514,0,0,0,898.48,603.009Zm1.277-13.561c-1.326-.319-1.2-1.949-.907-3.21s1.04-.39,2.323,1.251a6.673,6.673,0,0,1,1.3,1.747C902.785,590.028,901.084,589.766,899.758,589.447Zm20.461-10.935c.73-1.969-.41-3.419,2.4-4.854s2.844-2.463,2.83-.564-.56,3.393-3.155,4.568C922.29,577.662,919.489,580.481,920.219,578.512Zm5.081,9.05c-.066-.327,2.533-2.6,2.533-2.6,2.135-1.884,4.992-1.773,4.4-.878a6.849,6.849,0,0,1-3.7,2.683C927.058,587.017,925.365,587.89,925.3,587.563Zm-6.537,13.069c2.033-1.217,4.706-1.473,2.823-.174s-3.369,1.887-4.1,1.643S917.687,601.276,918.762,600.632Zm-10.875-18.688c-1.177-1.321-1.559-2.266-.347-2.9s1.621.376,1.258,1.378A4.162,4.162,0,0,1,907.887,581.943Zm-4.112,18.031c4.531-2.705,3.957-4.535,3.716-7.45-.285-3.447,1.832-1.727,3.547.945s-1.815,4.106-1.439,6.8c0,0,0,3.571-1.993,3.969C905.561,604.647,900.35,602.018,903.774,599.974Zm-8.847-1.8c.208-.953.729.179,1.9,1.08,1.995,1.535.1,1.512-1.051,1.3S894.72,599.13,894.927,598.177Z" transform="translate(-893.728 -542.688)" fill="#ffc10d"/>
      </g>
    </g>
    <g id="Group_2151" data-name="Group 2151" transform="translate(604.721 304.878)">
      <g id="Group_2138" data-name="Group 2138" transform="translate(54.504 0)">
        <g id="Group_2137" data-name="Group 2137" transform="translate(0)">
          <path id="Path_6966" data-name="Path 6966" d="M819.622,379.563v110.4a6.926,6.926,0,0,1-1.515,4.366,7.232,7.232,0,0,1-1.737,1.618l-1.054.564c-.03.029-.045.044-.074.044l-3.386,1.826c-.029.015-.074.045-.1.06l.653-1.322H752.52a7.154,7.154,0,0,1-7.172-7.157v-110.4a7.083,7.083,0,0,1,.906-3.475l-1.529-.49.089-.045.431-.223,3.831-2.049a7.112,7.112,0,0,1,3.445-.876h59.93A7.164,7.164,0,0,1,819.622,379.563Z" transform="translate(-741.249 -372.406)" fill="#60689d"/>
          <path id="Path_6967" data-name="Path 6967" d="M916.241,670.736a5.832,5.832,0,0,1-1.059.566Z" transform="translate(-841.116 -547.189)" fill="#6d1cc3"/>
          <path id="Path_6968" data-name="Path 6968" d="M810.608,384.813V495.2a7.154,7.154,0,0,1-3.623,6.222c-.045.029-.1.059-.149.089a7.09,7.09,0,0,1-3.4.861h-59.93a7.177,7.177,0,0,1-7.172-7.172V384.813a7.146,7.146,0,0,1,3.475-6.147.241.241,0,0,1,.089-.045l.431-.223a.357.357,0,0,1,.163-.089,7.1,7.1,0,0,1,3.014-.668h59.93A7.177,7.177,0,0,1,810.608,384.813Z" transform="translate(-736.334 -375.473)" fill="#adadea"/>
          <rect id="Rectangle_820" data-name="Rectangle 820" width="67.311" height="106.026" rx="11.891" transform="translate(3.475 9.55)" fill="#e6e9f8"/>
          <circle id="Ellipse_165" data-name="Ellipse 165" cx="3.693" cy="3.693" r="3.693" transform="translate(33.437 117.808)" fill="#a9d3f6"/>
          <path id="Path_6969" data-name="Path 6969" d="M822.557,385.692H811.939a.872.872,0,0,1-.872-.872h0a.872.872,0,0,1,.872-.872h10.618a.872.872,0,0,1,.872.872h0A.872.872,0,0,1,822.557,385.692Z" transform="translate(-780.118 -379.168)" fill="#a9d3f6"/>
          <path id="Path_6970" data-name="Path 6970" d="M919.75,429.685h0a.923.923,0,0,1-.924-.923v-3.822a.924.924,0,0,1,.924-.924h0a.923.923,0,0,1,.923.924v3.822A.923.923,0,0,1,919.75,429.685Z" transform="translate(-843.251 -402.643)" fill="#a9d3f6"/>
          <path id="Path_6971" data-name="Path 6971" d="M919.75,455.418h0a.923.923,0,0,1-.924-.923V445.75a.923.923,0,0,1,.924-.924h0a.923.923,0,0,1,.923.924V454.5A.923.923,0,0,1,919.75,455.418Z" transform="translate(-843.251 -414.835)" fill="#a9d3f6"/>
          <path id="Path_6972" data-name="Path 6972" d="M808.274,520.508l-4.076-4.075a14.027,14.027,0,0,0,0-17.965l3.4-3.4a5.79,5.79,0,0,0,7.053-.83,5.87,5.87,0,1,0-8.3-8.3,5.789,5.789,0,0,0-.829,7.054l-3.4,3.4a14.028,14.028,0,0,0-17.964,0l-4.076-4.076a4.86,4.86,0,0,0-.829-5.7,4.916,4.916,0,1,0-6.953,6.953,4.86,4.86,0,0,0,5.7.829l4.077,4.077a14.027,14.027,0,0,0,0,17.966l-3.4,3.4a5.789,5.789,0,0,0-7.055.827,5.87,5.87,0,0,0,8.3,8.3,5.789,5.789,0,0,0,.827-7.056l3.4-3.4a14.026,14.026,0,0,0,17.967,0l4.077,4.075a4.861,4.861,0,0,0,.827,5.708,4.916,4.916,0,1,0,6.953-6.953A4.86,4.86,0,0,0,808.274,520.508Z" transform="translate(-756.004 -437.912)" fill="#393768"/>
          <path id="Path_6973" data-name="Path 6973" d="M764.327,408.928a1.991,1.991,0,1,1-1.992-1.991A1.992,1.992,0,0,1,764.327,408.928Z" transform="translate(-750.401 -392.637)" fill="#a2a2f8"/>
          <path id="Path_6974" data-name="Path 6974" d="M777.894,408.928a1.991,1.991,0,1,1-1.991-1.991A1.991,1.991,0,0,1,777.894,408.928Z" transform="translate(-758.349 -392.637)" fill="#a2a2f8"/>
          <path id="Path_6975" data-name="Path 6975" d="M791.461,408.928a1.991,1.991,0,1,1-1.992-1.991A1.992,1.992,0,0,1,791.461,408.928Z" transform="translate(-766.298 -392.637)" fill="#a2a2f8"/>
        </g>
        <path id="Path_6976" data-name="Path 6976" d="M807.534,372.406H747.6a7.109,7.109,0,0,0-3.445.876l-3.659,1.957-.009,0a.356.356,0,0,0-.163.089l-.431.223-.089.045a7.146,7.146,0,0,0-3.475,6.147V492.133a7.177,7.177,0,0,0,7.172,7.172h59.93a7.093,7.093,0,0,0,3.4-.861c.03-.015.075-.045.1-.06l3.386-1.826c.029,0,.044-.015.074-.044l1.054-.564a7.234,7.234,0,0,0,1.737-1.618,6.927,6.927,0,0,0,1.514-4.366v-110.4A7.164,7.164,0,0,0,807.534,372.406Z" transform="translate(-736.333 -372.406)" fill="url(#linear-gradient)" style="mix-blend-mode: soft-light;isolation: isolate"/>
      </g>
      <g id="Group_2140" data-name="Group 2140" transform="translate(54.502 0.001)">
        <g id="Group_2139" data-name="Group 2139">
          <path id="Path_6977" data-name="Path 6977" d="M819.64,379.567V489.961a6.87,6.87,0,0,1-1.521,4.367,6.993,6.993,0,0,1-1.741,1.631l-1.051.553c-.027.027-.055.055-.083.055l-3.345,1.8-.027.027a.209.209,0,0,0-.111.056l.663-1.327h-59.9a7.2,7.2,0,0,1-1.548-.166,7.123,7.123,0,0,1-5.639-6.993V379.567a7.107,7.107,0,0,1,.912-3.482l-1.52-.5c.028,0,.055-.028.083-.028l.442-.221a.167.167,0,0,1,.166-.083l3.648-1.963a6.984,6.984,0,0,1,3.455-.885h59.924A7.166,7.166,0,0,1,819.64,379.567Z" transform="translate(-741.253 -372.408)" fill="#231f20"/>
          <path id="Path_6978" data-name="Path 6978" d="M916.241,670.736a5.832,5.832,0,0,1-1.059.566Z" transform="translate(-841.112 -547.189)" fill="#6d1cc3"/>
          <path id="Path_6979" data-name="Path 6979" d="M810.595,384.8V495.2a7.135,7.135,0,0,1-3.621,6.219l-.027.027a.21.21,0,0,0-.111.056,7.135,7.135,0,0,1-3.4.857H743.512a7.166,7.166,0,0,1-7.186-7.159V384.8a7.161,7.161,0,0,1,3.482-6.163c.028,0,.055-.028.083-.028l.442-.221a.167.167,0,0,1,.166-.083,6.89,6.89,0,0,1,3.013-.691h59.923A7.166,7.166,0,0,1,810.595,384.8Z" transform="translate(-736.326 -375.458)" fill="#404041"/>
          <rect id="Rectangle_821" data-name="Rectangle 821" width="67.311" height="106.026" rx="11.891" transform="translate(3.478 9.55)" fill="#e6e9f8"/>
          <circle id="Ellipse_166" data-name="Ellipse 166" cx="3.693" cy="3.693" r="3.693" transform="translate(33.44 117.807)" fill="#d70b8c"/>
          <path id="Path_6980" data-name="Path 6980" d="M822.557,385.692H811.939a.872.872,0,0,1-.872-.872h0a.872.872,0,0,1,.872-.872h10.618a.872.872,0,0,1,.872.872h0A.872.872,0,0,1,822.557,385.692Z" transform="translate(-780.115 -379.169)" fill="#d70b8c"/>
          <path id="Path_6981" data-name="Path 6981" d="M919.75,429.685h0a.923.923,0,0,1-.924-.923v-3.822a.924.924,0,0,1,.924-.924h0a.923.923,0,0,1,.923.924v3.822A.923.923,0,0,1,919.75,429.685Z" transform="translate(-843.247 -402.644)" fill="#a9d3f6"/>
          <path id="Path_6982" data-name="Path 6982" d="M919.75,455.418h0a.923.923,0,0,1-.924-.923V445.75a.923.923,0,0,1,.924-.924h0a.923.923,0,0,1,.923.924V454.5A.923.923,0,0,1,919.75,455.418Z" transform="translate(-843.247 -414.836)" fill="#a9d3f6"/>
          <path id="Path_6983" data-name="Path 6983" d="M764.327,408.928a1.991,1.991,0,1,1-1.992-1.991A1.992,1.992,0,0,1,764.327,408.928Z" transform="translate(-750.397 -392.637)" fill="#009ddc"/>
          <path id="Path_6984" data-name="Path 6984" d="M777.894,408.928a1.991,1.991,0,1,1-1.991-1.991A1.991,1.991,0,0,1,777.894,408.928Z" transform="translate(-758.346 -392.637)" fill="#ffc10d"/>
          <path id="Path_6985" data-name="Path 6985" d="M791.461,408.928a1.991,1.991,0,1,1-1.992-1.991A1.992,1.992,0,0,1,791.461,408.928Z" transform="translate(-766.294 -392.637)" fill="#00aab4"/>
        </g>
      </g>
      <g id="Group_2141" data-name="Group 2141" transform="translate(91.635 18.283)">
        <rect id="Rectangle_822" data-name="Rectangle 822" width="53.688" height="11.85" rx="5.925" fill="#d70b8c" opacity="0.5"/>
        <path id="Path_6986" data-name="Path 6986" d="M933.715,420.933a3.258,3.258,0,0,0-4.607,4.607,3.212,3.212,0,0,0,3.966.424l2.793,2.793,1.063-1.063-2.793-2.793A3.215,3.215,0,0,0,933.715,420.933Zm-1.065,3.544a1.754,1.754,0,1,1,0-2.481A1.756,1.756,0,0,1,932.65,424.477Z" transform="translate(-885.846 -418.561)" fill="#393768"/>
      </g>
      <g id="Group_2146" data-name="Group 2146" transform="translate(123.021 40.437)">
        <g id="Group_2142" data-name="Group 2142" transform="translate(0 5.695)" opacity="0.1">
          <path id="Path_6987" data-name="Path 6987" d="M902.775,492.674a3.365,3.365,0,0,0-.746,1.133,3.5,3.5,0,0,0-.249,1.3,3.414,3.414,0,0,0,1,2.4l1.271,1.271,7.6,7.6V483.8Z" transform="translate(-901.78 -483.801)"/>
        </g>
        <g id="Group_2145" data-name="Group 2145" transform="translate(25.062)">
          <g id="Group_2143" data-name="Group 2143">
            <path id="Path_6988" data-name="Path 6988" d="M962.3,473.812a4.721,4.721,0,0,0,1.561,1.719c.43,2.1,7.062,13.146,8.774,14.416,1,.948,6.64,3.887,7.592,3.258a8.308,8.308,0,0,1,.445-4.5l-5.127-1.188-1.416-2.067-6.036-8.743-1.131-1.668-.621-.9a6.684,6.684,0,0,0,.568-2.279c-.3-.485-.431-.428-.86-.328-.173.47-.253.692-.746.827-.62-.617-.523-2.293-.677-2.3-.528.048-1.149.7-1.694,1.425A4.005,4.005,0,0,0,962.3,473.812Z" transform="translate(-962.296 -470.049)" fill="#edb6a4"/>
            <path id="Path_6989" data-name="Path 6989" d="M962.3,473.812a4.721,4.721,0,0,0,1.561,1.719c.43,2.1,7.062,13.146,8.774,14.416,1,.948,6.64,3.887,7.592,3.258a8.308,8.308,0,0,1,.445-4.5l-5.127-1.188-1.416-2.067-6.036-8.743-1.131-1.668-.621-.9a6.684,6.684,0,0,0,.568-2.279c-.3-.485-.431-.428-.86-.328-.173.47-.253.692-.746.827-.62-.617-.523-2.293-.677-2.3-.528.048-1.149.7-1.694,1.425A4.005,4.005,0,0,0,962.3,473.812Z" transform="translate(-962.296 -470.049)" fill="url(#linear-gradient-2)" style="mix-blend-mode: soft-light;isolation: isolate"/>
          </g>
          <path id="Path_6990" data-name="Path 6990" d="M1000.564,513.768l-3.516-1.088a11.129,11.129,0,0,0-1.888,4.72c1.636,1.211,3.78,2.906,6.395,3.537Z" transform="translate(-981.55 -495.025)" fill="#80298f"/>
          <path id="Path_6991" data-name="Path 6991" d="M1010.818,680.705s.1,1.553-.327,2.055,4.009.525,4.009.525-1.266-2.3-.721-3.315S1010.818,680.705,1010.818,680.705Z" transform="translate(-990.515 -592.851)" fill="#edb6a4"/>
          <path id="Path_6992" data-name="Path 6992" d="M998.823,690.132l8.632-.685a2.457,2.457,0,0,0-.224-2.828,7.748,7.748,0,0,1-3.945-.28,15.186,15.186,0,0,1-4.551,2.674C998.136,689.321,998.281,689.706,998.823,690.132Z" transform="translate(-983.417 -596.767)" fill="#e6e9f8"/>
          <rect id="Rectangle_823" data-name="Rectangle 823" width="8.673" height="0.371" transform="matrix(0.997, -0.079, 0.079, 0.997, 15.406, 93.366)" fill="#a8cfef"/>
          <path id="Path_6993" data-name="Path 6993" d="M1018.082,578.3a4.845,4.845,0,0,0-.431.936c-.572,2.5-7,12.582-8.819,17.793-1.638,5.264-1.215,13.36-.3,22.358a6.159,6.159,0,0,1-3.579.212c-1.794-9.086-4.535-20.427-3.675-23.208a91.426,91.426,0,0,1,5.467-19.4l.3-1.066.467-1.652,1.819.7,6.462,2.462Z" transform="translate(-985.039 -531.112)" fill="#8d9dd8"/>
          <path id="Path_6994" data-name="Path 6994" d="M1060.216,672.169s.676,1.4.467,2.028,3.913-1.016,3.913-1.016-2.037-1.661-1.911-2.8S1060.216,672.169,1060.216,672.169Z" transform="translate(-1019.664 -587.262)" fill="#edb6a4"/>
          <path id="Path_6995" data-name="Path 6995" d="M1053.23,682.779l7.746-3.87a2.456,2.456,0,0,0-1.268-2.538,7.748,7.748,0,0,1-3.762,1.219,15.181,15.181,0,0,1-3.217,4.185C1052.289,682.284,1052.568,682.587,1053.23,682.779Z" transform="translate(-1015.153 -590.927)" fill="#e6e9f8"/>
          <rect id="Rectangle_824" data-name="Rectangle 824" width="8.673" height="0.371" transform="matrix(0.895, -0.447, 0.447, 0.895, 38.077, 91.853)" fill="#a8cfef"/>
          <path id="Path_6996" data-name="Path 6996" d="M1032.248,573.624c-.018.347,3.433,3,3.543,3.327,2.088,6.287-1.243,11.123-1.41,16.465.454,5.494,3.88,12.842,8.1,20.84a6.153,6.153,0,0,1-3.238,1.538c-5.068-7.752-11.861-17.238-12.105-20.139a91.421,91.421,0,0,1-2.2-20.033l-.121-1.1-.187-1.707,1.947-.037,6.914-.139Z" transform="translate(-998.815 -530.153)" fill="#8d9dd8"/>
          <path id="Path_6997" data-name="Path 6997" d="M1027.467,546.115c-.26,2.265-17.816-.121-17.96-1.744,1.877-7.545,1.249-10.6-.156-18.663.006-.012.006-.012,0-.021-.23-1.324-.445-2.725-.637-4.246-.041-.334-.084-.678-.122-1.033q-.286-2.5-.434-5.44a29.015,29.015,0,0,1,4.042-.21c1.538.159,3-.064,4.361.1,1.755.2,3.294.118,5.657,1.655C1026.772,520.867,1023.606,534.03,1027.467,546.115Z" transform="translate(-989.167 -496.242)" fill="#80298f"/>
          <path id="Path_6998" data-name="Path 6998" d="M1015.951,507.124l4.934.819c-.411,1.881-.449,1.771,1.11,2.523-.4,3.477-8.828,4.088-6.186-.138C1017.64,510.163,1016.61,509.094,1015.951,507.124Z" transform="translate(-993.347 -491.77)" fill="#e0a494"/>
          <path id="Path_6999" data-name="Path 6999" d="M1015.951,507.124l4.934.819c-.411,1.881-.449,1.771,1.11,2.523-.4,3.477-8.828,4.088-6.186-.138C1017.64,510.163,1016.61,509.094,1015.951,507.124Z" transform="translate(-993.347 -491.77)" fill="url(#linear-gradient-3)" style="mix-blend-mode: soft-light;isolation: isolate"/>
          <path id="Path_7000" data-name="Path 7000" d="M1013.35,495.9c.323.655,3.466.691,6.724.54l2.824-7.681-6.641-2.5C1013.184,489.2,1012.486,494.907,1013.35,495.9Z" transform="translate(-992.006 -479.544)" fill="#edb6a4"/>
          <path id="Path_7001" data-name="Path 7001" d="M1013.35,495.9c.323.655,3.466.691,6.724.54l2.824-7.681-6.641-2.5C1013.184,489.2,1012.486,494.907,1013.35,495.9Z" transform="translate(-992.006 -479.544)" fill="url(#linear-gradient-4)" style="mix-blend-mode: soft-light;isolation: isolate"/>
          <path id="Path_7002" data-name="Path 7002" d="M1012.208,480.416c-1.129.332-1.193,4.327.906,5.59a6.065,6.065,0,0,0,4,.23c-.1,1.1-.188,2.7-.781,3.046a1.7,1.7,0,0,0,1.111.674,1.581,1.581,0,0,1,1.14-1.217c.36-.049.421-.023.727.324.367.449.015.95-.518,1.155-1.26.419-1.209,2.524-1.131,3.431.923.081,2.486-.927,3.1-1.445,1.294-1.512,1.791-1.912,2.245-5.242C1022.415,480.5,1018.293,483.006,1012.208,480.416Z" transform="translate(-991.082 -476.123)" fill="#635fb5"/>
          <g id="Group_2144" data-name="Group 2144" transform="translate(1.998 16.365)">
            <path id="Path_7003" data-name="Path 7003" d="M967.785,513.992a4.72,4.72,0,0,0,2.224.667c1.449,1.574,12.831,7.62,14.953,7.825,1.343.3,7.693-.094,8.185-1.125a8.3,8.3,0,0,1-1.942-4.088l-5,1.626-2.279-1.04-9.682-4.377-1.829-.846-1-.453a6.671,6.671,0,0,0-.689-2.246c-.506-.262-.59-.144-.906.162.094.493.14.724-.212,1.094-.849-.208-1.63-1.694-1.768-1.624a3.248,3.248,0,0,0-.716,2.095A4.007,4.007,0,0,0,967.785,513.992Z" transform="translate(-967.121 -509.566)" fill="#edb6a4"/>
            <path id="Path_7004" data-name="Path 7004" d="M967.785,513.992a4.72,4.72,0,0,0,2.224.667c1.449,1.574,12.831,7.62,14.953,7.825,1.343.3,7.693-.094,8.185-1.125a8.3,8.3,0,0,1-1.942-4.088l-5,1.626-2.279-1.04-9.682-4.377-1.829-.846-1-.453a6.671,6.671,0,0,0-.689-2.246c-.506-.262-.59-.144-.906.162.094.493.14.724-.212,1.094-.849-.208-1.63-1.694-1.768-1.624a3.248,3.248,0,0,0-.716,2.095A4.007,4.007,0,0,0,967.785,513.992Z" transform="translate(-967.121 -509.566)" fill="url(#linear-gradient-5)" style="mix-blend-mode: soft-light;isolation: isolate"/>
          </g>
        </g>
      </g>
      <g id="Group_2150" data-name="Group 2150" transform="translate(0 79.321)">
        <path id="Path_7005" data-name="Path 7005" d="M748.163,590.084a1.572,1.572,0,0,1-.028-.359.137.137,0,0,0-.028-.083c0-.055-.028-.083-.028-.138l-.083-.249a4.333,4.333,0,0,0-.636-1.6.38.38,0,0,0-.083-.111,4.8,4.8,0,0,0-.608-.857c-.166-.166-.359-.332-.553-.5-.774-.415-1.548-.719-2.294-1.051-.028,0-.028-.027-.028-.055a7.592,7.592,0,0,1-1.493-2.626,9.314,9.314,0,0,0,1.824-4.948,7.482,7.482,0,0,0-2.819-4.7,8,8,0,0,0-3.317-.47,2.382,2.382,0,0,0-.608.055,3.445,3.445,0,0,0-.746.083,3,3,0,0,1-2.736,1.078,6.7,6.7,0,0,1-1.714-.276,7.139,7.139,0,0,0,1.631,4.423c.028,0,.056.027.083,0a1.058,1.058,0,0,0,.414.027c.663,2.515,1.962,5.2,2.957,6.026a11.381,11.381,0,0,0-2.377.221l-.028.028v-.028s-.387.249-.967.608v24.683a7.166,7.166,0,0,0,7.186,7.159h1.548c.276-.664.608-1.465,1-2.349a46.924,46.924,0,0,0,2.515-8.983,55.9,55.9,0,0,0,.691-6.744l.027.028a18.819,18.819,0,0,0,1.3-5.113A9.443,9.443,0,0,0,748.163,590.084Z" transform="translate(-679.4 -568.85)" opacity="0.1"/>
        <g id="Group_2149" data-name="Group 2149">
          <path id="Path_7006" data-name="Path 7006" d="M637.214,677.889l-.389,1.2s.007.034-.047.115l-.014.02a5.9,5.9,0,0,1-.9,1.62,1.155,1.155,0,0,1-.364.284c-.7.352,4.065,2.5,4.065,2.5a2.981,2.981,0,0,1-.022-.8,13.545,13.545,0,0,1,1.055-2.686Z" transform="translate(-622.712 -630.7)" fill="#edb6a4"/>
          <g id="Group_2147" data-name="Group 2147" transform="translate(5.68 49.927)">
            <path id="Path_7007" data-name="Path 7007" d="M618.685,686.549l10.129,3.576a3.048,3.048,0,0,0,1.172-3.318,9.614,9.614,0,0,1-4.33-2.307,18.825,18.825,0,0,1-6.506.735C618.315,685.282,618.286,685.792,618.685,686.549Z" transform="translate(-618.436 -684.5)" fill="#adadea"/>
            <rect id="Rectangle_825" data-name="Rectangle 825" width="10.759" height="0.461" transform="translate(0.249 2.049) rotate(19.448)" fill="#393768"/>
          </g>
          <path id="Path_7008" data-name="Path 7008" d="M620.715,684.55l-1.141.35s-.022.023-.114.026h-.023a5.58,5.58,0,0,1-1.743.181,1.088,1.088,0,0,1-.417-.128c-.653-.352.273,4.5.273,4.5a2.818,2.818,0,0,1,.609-.452,12.864,12.864,0,0,1,2.651-.641Z" transform="translate(-611.941 -634.603)" fill="#edb6a4"/>
          <g id="Group_2148" data-name="Group 2148" transform="translate(0 45.205)">
            <path id="Path_7009" data-name="Path 7009" d="M605.734,673.8l2.726,9.778a2.88,2.88,0,0,0,3.2-.893,9.086,9.086,0,0,1-.564-4.6,17.8,17.8,0,0,1-4.1-4.637C606.514,672.83,606.1,673.084,605.734,673.8Z" transform="translate(-605.315 -673.099)" fill="#adadea"/>
            <rect id="Rectangle_826" data-name="Rectangle 826" width="10.167" height="0.435" transform="translate(0.419 0.704) rotate(74.42)" fill="#393768"/>
          </g>
          <path id="Path_7010" data-name="Path 7010" d="M636.826,648.271l.357.132,3.643,1.351h.013l.371.145c3.192-6.927,7.668-12.833,8.185-15.681,1.761,2.41,8.8,8,10.358,9.091l12.649-1.318,3.139.013c-1.285-.927-2.6-1.894-3.907-2.874s-2.609-1.973-3.907-2.953c-5.245-4-10.384-7.92-14.45-10.238-.345-.212-.689-.4-1.02-.57h-.013a17.435,17.435,0,0,0-1.682-.808,5.972,5.972,0,0,0-3.947-.649,1.439,1.439,0,0,0-.45.225,5.534,5.534,0,0,0-1.589,1.894,23.845,23.845,0,0,0-1.4,2.9c-.08.172-.159.357-.225.53C640.839,634.669,638.747,642.457,636.826,648.271Z" transform="translate(-623.531 -599)" fill="#00aab4"/>
          <path id="Path_7011" data-name="Path 7011" d="M623.388,674.58l-.883-4.124s19.336-5.9,22.969-6.295c3.256-.693,15.061-4.953,27.531-3.587,1.07,3.929-.14,8.607-3.644,10.266-5.223,2-13.266.95-21.088.224Z" transform="translate(-615.14 -620.399)" fill="#00aab4"/>
          <path id="Path_7012" data-name="Path 7012" d="M711.905,617.19a6.619,6.619,0,0,0,1.377,2.015,22.109,22.109,0,0,0,3.28,2.879c2.729,2,6.171,3.755,8.975,3.981a1.883,1.883,0,0,0,.263.025c.851-2.879,4.806-8.987,4.969-21.129v-.012c.013-.263.013-.538.013-.814a68.278,68.278,0,0,0-.789-10.126v-.038a23.957,23.957,0,0,0-3.254-1.464,16.252,16.252,0,0,0-4.393-.964,13.165,13.165,0,0,0-3.58.225,33.683,33.683,0,0,0-3.755,8.086c-.037.113-.063.2-.087.3v.012a24.254,24.254,0,0,0-.789,3.855c-.138.989-.225,1.94-.288,2.879-.025.363-.05.738-.063,1.1-.05.526-.087,1.051-.125,1.59a24.182,24.182,0,0,1-1.514,7C712.068,616.789,711.992,616.99,711.905,617.19Z" transform="translate(-667.517 -580.092)" fill="#009ddc"/>
          <path id="Path_7013" data-name="Path 7013" d="M684.98,592.165l-3.747,8.077a19.792,19.792,0,0,1-1.751,1.529l-.012.012c-.549.42-1.132.852-1.821,1.284-.642.4-1.342.817-2.125,1.226-.408.21-.829.432-1.284.642-.385.187-.794.374-1.2.549-.012,0-.012.012-.023.012-1.4.607-5.031.9-9.268,1.261h-.012c-1.774.163-3.641.327-5.509.548a11.978,11.978,0,0,0-2.65,2.475,2.729,2.729,0,0,0-.409.35,1.121,1.121,0,0,1-.759.222,2.536,2.536,0,0,1-.1-1.447v-.012a4.167,4.167,0,0,1,.5-1.763c.467-1.028,2.182-2.1,3.152-1.833l11.952-3.035h.012l.863-.221.187-.047H671l.268-.058h.012l.712-.2c.222-.175.432-.35.654-.525a4.477,4.477,0,0,1,.374-.28.245.245,0,0,1,.117-.1l.012-.012a.623.623,0,0,0,.128-.116c1.342-1.062,2.65-2.09,3.9-3.058l.339-.268c1.879-1.436,3.677-2.755,5.451-3.945a.406.406,0,0,1,.07-.035c.175-.105.362-.234.537-.35.374-.234.7-.432.934-.583a2.121,2.121,0,0,1,.3-.187C684.9,592.212,684.957,592.177,684.98,592.165Z" transform="translate(-633.746 -580.477)" fill="#e0a494"/>
          <path id="Path_7014" data-name="Path 7014" d="M684.98,592.165l-3.747,8.077a19.792,19.792,0,0,1-1.751,1.529l-.012.012c-.549.42-1.132.852-1.821,1.284-.642.4-1.342.817-2.125,1.226-.408.21-.829.432-1.284.642-.385.187-.794.374-1.2.549-.012,0-.012.012-.023.012-1.4.607-5.031.9-9.268,1.261h-.012c-1.774.163-3.641.327-5.509.548a11.978,11.978,0,0,0-2.65,2.475,2.729,2.729,0,0,0-.409.35,1.121,1.121,0,0,1-.759.222,2.536,2.536,0,0,1-.1-1.447v-.012a4.167,4.167,0,0,1,.5-1.763c.467-1.028,2.182-2.1,3.152-1.833l11.952-3.035h.012l.863-.221.187-.047H671l.268-.058h.012l.712-.2c.222-.175.432-.35.654-.525a4.477,4.477,0,0,1,.374-.28.245.245,0,0,1,.117-.1l.012-.012a.623.623,0,0,0,.128-.116c1.342-1.062,2.65-2.09,3.9-3.058l.339-.268c1.879-1.436,3.677-2.755,5.451-3.945a.406.406,0,0,1,.07-.035c.175-.105.362-.234.537-.35.374-.234.7-.432.934-.583a2.121,2.121,0,0,1,.3-.187C684.9,592.212,684.957,592.177,684.98,592.165Z" transform="translate(-633.746 -580.477)" fill="url(#linear-gradient-6)" style="mix-blend-mode: soft-light;isolation: isolate"/>
          <path id="Path_7015" data-name="Path 7015" d="M741.072,588.126c1.621,2.845-8.96,2.752-5.638-.359.335-1.053.292-1.171-.308-2l4.152-2.351A6.643,6.643,0,0,0,741.072,588.126Z" transform="translate(-680.921 -575.352)" fill="#e0a494"/>
          <path id="Path_7016" data-name="Path 7016" d="M741.072,588.126c1.621,2.845-8.96,2.752-5.638-.359.335-1.053.292-1.171-.308-2l4.152-2.351A6.643,6.643,0,0,0,741.072,588.126Z" transform="translate(-680.921 -575.352)" fill="url(#linear-gradient-7)" style="mix-blend-mode: soft-light;isolation: isolate"/>
          <path id="Path_7017" data-name="Path 7017" d="M734.4,572.422c-1.436,1.577-3.086,3.27-4.309,3.425-1.4.194-4.319-6.446-3.938-9.535a10.675,10.675,0,0,1,5.6-2l3.814,3.937Z" transform="translate(-675.842 -564.157)" fill="#edb6a4"/>
          <path id="Path_7018" data-name="Path 7018" d="M734.4,572.422c-1.436,1.577-3.086,3.27-4.309,3.425-1.4.194-4.319-6.446-3.938-9.535a10.675,10.675,0,0,1,5.6-2l3.814,3.937Z" transform="translate(-675.842 -564.157)" fill="url(#linear-gradient-8)" style="mix-blend-mode: soft-light;isolation: isolate"/>
          <path id="Path_7019" data-name="Path 7019" d="M700.288,618.774s.379-.252.379-.252l-.533-.376Z" transform="translate(-660.62 -595.699)" fill="#7ea3ef"/>
          <path id="Path_7020" data-name="Path 7020" d="M688.437,597.492v.012c-.012-.012-.024,0-.024.012Z" transform="translate(-653.754 -583.598)" fill="#7ea3ef"/>
          <path id="Path_7021" data-name="Path 7021" d="M693.171,606.4l-2.125-1.109a1.583,1.583,0,0,1-.537-.723l-2.486-6.49-.455-.339.35-.233c0-.012.012-.024.024-.012.035-.035.07-.023.128,0l2.112,1.121a1.526,1.526,0,0,1,.537.724l2.556,6.677C693.392,606.325,693.346,606.488,693.171,606.4Z" transform="translate(-653.259 -583.583)" fill="#60689d"/>
          <path id="Path_7022" data-name="Path 7022" d="M692.715,607.016,690.6,605.9a1.554,1.554,0,0,1-.534-.725l-2.556-6.683c-.118-.307-.069-.48.109-.387l2.119,1.113a1.555,1.555,0,0,1,.534.724l2.556,6.683C692.941,606.936,692.892,607.109,692.715,607.016Z" transform="translate(-653.185 -583.944)" fill="#adadea"/>
          <path id="Path_7023" data-name="Path 7023" d="M691.525,601.516l-.664-.349a.716.716,0,0,1-.246-.334h0c-.054-.142-.032-.222.05-.178l.664.349a.717.717,0,0,1,.246.334h0C691.63,601.479,691.607,601.559,691.525,601.516Z" transform="translate(-655.027 -585.444)" fill="#e6e9f8"/>
          <path id="Path_7024" data-name="Path 7024" d="M728.32,567.386c-1.734,1.269-3.43,2.387-4.734,1.953a7.168,7.168,0,0,1-1.638-4.414c1.823.5,3.42.5,4.442-.8a8.807,8.807,0,0,1,4.674.309,7.435,7.435,0,0,1,2.815,4.7,9.364,9.364,0,0,1-1.835,4.994c-.811-.132-1.463-.387-1.661-1a4.2,4.2,0,0,0,.6-2.73,1.634,1.634,0,0,0-.84-1.089,2.186,2.186,0,0,0-.68,1.387A4.863,4.863,0,0,1,728.32,567.386Z" transform="translate(-673.401 -563.942)" fill="#393768"/>
          <path id="Path_7025" data-name="Path 7025" d="M719.868,604.566c-.105.222-.175.443-.268.665-.35.829-1.155,3.747-1.4,4.342-1.261,3.023-2.416,4.482-5.311,6.945-5.288,1.109-18.466-9.291-19.189-9.7l-1.774-.455a7.3,7.3,0,0,1-.782-3.467c.549-.444,1.074-.689,1.564-.4l1.109.887a1.587,1.587,0,0,1-.024-1.015.542.542,0,0,1,.677-.082,11.2,11.2,0,0,0,.526,1.786l4.26,2.113,2.708,1.342,8.953,4.447c.023-.023.852-1.774,1.938-4.062,1.8-3.747,4.26-8.941,4.844-10.155l.058-.1.07-.14V597.5l.012-.012a4.338,4.338,0,0,1,.537.49,4.891,4.891,0,0,1,1.459,2.953.138.138,0,0,1,.012.093A18.449,18.449,0,0,1,719.868,604.566Z" transform="translate(-655.351 -583.598)" fill="#edb6a4"/>
          <path id="Path_7026" data-name="Path 7026" d="M719.868,604.566c-.105.222-.175.443-.268.665-.35.829-1.155,3.747-1.4,4.342-1.261,3.023-2.416,4.482-5.311,6.945-5.288,1.109-18.466-9.291-19.189-9.7l-1.774-.455a7.3,7.3,0,0,1-.782-3.467c.549-.444,1.074-.689,1.564-.4l1.109.887a1.587,1.587,0,0,1-.024-1.015.542.542,0,0,1,.677-.082,11.2,11.2,0,0,0,.526,1.786l4.26,2.113,2.708,1.342,8.953,4.447c.023-.023.852-1.774,1.938-4.062,1.8-3.747,4.26-8.941,4.844-10.155l.058-.1.07-.14V597.5l.012-.012a4.338,4.338,0,0,1,.537.49,4.891,4.891,0,0,1,1.459,2.953.138.138,0,0,1,.012.093A18.449,18.449,0,0,1,719.868,604.566Z" transform="translate(-655.351 -583.598)" fill="url(#linear-gradient-9)" style="mix-blend-mode: soft-light;isolation: isolate"/>
          <path id="Path_7027" data-name="Path 7027" d="M711.935,601.865s-2.764-3.819-2.347-4.494,7.789-5.233,7.789-5.233l-3.473,8.049A19.286,19.286,0,0,1,711.935,601.865Z" transform="translate(-666.134 -580.461)" fill="#009ddc"/>
          <path id="Path_7028" data-name="Path 7028" d="M742.782,607.733c.1.062.206.123.329.185a33.108,33.108,0,0,0,5.718,1.737,19.216,19.216,0,0,0,1.3-5.091c.452-2.439-.021-5.515-2.037-7.079l-.082.164Z" transform="translate(-685.607 -583.594)" fill="#009ddc"/>
        </g>
      </g>
    </g>
  </g>
</svg>
