<svg id="undraw_post_online_dkuk" xmlns="http://www.w3.org/2000/svg" xmlns:xlink="http://www.w3.org/1999/xlink" width="185.663" height="299.79" viewBox="0 0 185.663 299.79">
  <defs>
    <linearGradient id="linear-gradient" x1="0.5" y1="1" x2="0.5" gradientUnits="objectBoundingBox">
      <stop offset="0" stop-color="gray" stop-opacity="0.251"/>
      <stop offset="0.54" stop-color="gray" stop-opacity="0.122"/>
      <stop offset="1" stop-color="gray" stop-opacity="0.102"/>
    </linearGradient>
    <linearGradient id="linear-gradient-2" x1="0.5" y1="1" x2="0.5" y2="0" xlink:href="#linear-gradient"/>
    <linearGradient id="linear-gradient-3" x1="0.252" y1="0.131" x2="0.867" y2="2.357" gradientUnits="objectBoundingBox">
      <stop offset="0" stop-color="#009ddc"/>
      <stop offset="0.167" stop-color="#ffc10d"/>
      <stop offset="0.374" stop-color="#d70b8c"/>
      <stop offset="0.586" stop-color="#80298f"/>
      <stop offset="0.803" stop-color="#00aab4"/>
      <stop offset="1" stop-color="#411548"/>
    </linearGradient>
  </defs>
  <path id="Path_658" data-name="Path 658" d="M603.988,133.991h-.951V85.4c0-10.716-9.308-19.4-20.79-19.4H465.793C454.311,66,445,74.688,445,85.4V105.54h-.277a1.186,1.186,0,0,0-1.224,1.14v9.7a1.186,1.186,0,0,0,1.224,1.14h.3v9.9h-.375a1.182,1.182,0,0,0-1.219,1.14V147.1a1.185,1.185,0,0,0,1.219,1.144h.375v7.273H444.7a1.247,1.247,0,0,0-.862.329,1.119,1.119,0,0,0-.362.811v18.725a1.119,1.119,0,0,0,.362.811,1.247,1.247,0,0,0,.862.329h.324V346.394c0,10.716,9.308,19.4,20.79,19.4H582.243c11.482,0,20.79-8.688,20.79-19.4V170.334h.955a1.186,1.186,0,0,0,1.224-1.14V135.131a1.186,1.186,0,0,0-1.224-1.14Z" transform="translate(-425.607 -66)" fill="url(#linear-gradient)"/>
  <g id="Group_17" data-name="Group 17" transform="translate(20.167 2.132)" opacity="0.9">
    <rect id="Rectangle_11" data-name="Rectangle 11" width="4.592" height="37.87" rx="2.29" transform="translate(152.79 66.599)" fill="#e5e7eb"/>
    <rect id="Rectangle_12" data-name="Rectangle 12" width="2.58" height="12.467" rx="1.29" transform="translate(0.094 41.2)" fill="#e5e7eb"/>
    <rect id="Rectangle_13" data-name="Rectangle 13" width="2.908" height="21.698" rx="1.454" transform="translate(0 60.382)" fill="#e5e7eb"/>
    <rect id="Rectangle_14" data-name="Rectangle 14" width="2.767" height="21.886" rx="1.384" transform="translate(0.047 88.005)" fill="#e5e7eb"/>
    <rect id="Rectangle_15" data-name="Rectangle 15" width="153.715" height="295.871" rx="13.99" transform="translate(1.552)"/>
    <rect id="Rectangle_16" data-name="Rectangle 16" width="21.468" height="4.357" rx="2.179" transform="translate(63.585 9.329)" fill="#e5e7eb"/>
    <circle id="Ellipse_153" data-name="Ellipse 153" cx="2.473" cy="2.473" r="2.473" transform="translate(88.293 9.035)" fill="#e5e7eb"/>
  </g>
  <path id="Path_659" data-name="Path 659" d="M597.261,90.09h-17.6V92.1a9.785,9.785,0,0,1-10.054,9.488h-56.1A9.786,9.786,0,0,1,503.456,92.1V90.09H486.947c-6.742,0-12.207,5.16-12.207,11.525V358.161c0,6.365,5.465,11.525,12.207,11.525H597.261c6.742,0,12.207-5.16,12.207-11.525V101.615C609.469,95.25,604,90.09,597.261,90.09Z" transform="translate(-443.27 -79.819)" fill="#ececf3"/>
  <rect id="Rectangle_17" data-name="Rectangle 17" width="21.783" height="21.783" transform="translate(44.878 32.83)" fill="#d6d8e0"/>
  <rect id="Rectangle_18" data-name="Rectangle 18" width="45.639" height="4.149" transform="translate(79.924 34.387)" fill="#d6d8e0"/>
  <rect id="Rectangle_19" data-name="Rectangle 19" width="75.199" height="4.149" transform="translate(78.771 41.648)" fill="#d6d8e0"/>
  <rect id="Rectangle_20" data-name="Rectangle 20" width="75.199" height="4.149" transform="translate(78.771 48.909)" fill="#d6d8e0"/>
  <rect id="Rectangle_21" data-name="Rectangle 21" width="21.783" height="21.783" transform="translate(45.035 68.829)" fill="#d6d8e0"/>
  <rect id="Rectangle_22" data-name="Rectangle 22" width="45.639" height="4.149" transform="translate(80.08 70.52)" fill="#d6d8e0"/>
  <rect id="Rectangle_23" data-name="Rectangle 23" width="75.199" height="4.149" transform="translate(78.926 77.41)" fill="#d6d8e0"/>
  <rect id="Rectangle_24" data-name="Rectangle 24" width="75.199" height="4.149" transform="translate(78.926 84.295)" fill="#d6d8e0"/>
  <rect id="Rectangle_25" data-name="Rectangle 25" width="21.783" height="21.783" transform="translate(45.193 106.602)" fill="#d6d8e0"/>
  <rect id="Rectangle_26" data-name="Rectangle 26" width="45.639" height="4.149" transform="translate(80.241 108.407)" fill="#d6d8e0"/>
  <rect id="Rectangle_27" data-name="Rectangle 27" width="75.199" height="4.149" transform="translate(79.085 115.297)" fill="#d6d8e0"/>
  <rect id="Rectangle_28" data-name="Rectangle 28" width="75.199" height="4.149" transform="translate(79.085 122.187)" fill="#d6d8e0"/>
  <rect id="Rectangle_29" data-name="Rectangle 29" width="21.783" height="21.783" transform="translate(45.35 144.372)" fill="#d6d8e0"/>
  <rect id="Rectangle_30" data-name="Rectangle 30" width="45.639" height="4.149" transform="translate(80.397 146.299)" fill="#d6d8e0"/>
  <rect id="Rectangle_31" data-name="Rectangle 31" width="75.199" height="4.149" transform="translate(79.24 153.189)" fill="#d6d8e0"/>
  <rect id="Rectangle_32" data-name="Rectangle 32" width="75.199" height="4.149" transform="translate(79.24 160.079)" fill="#d6d8e0"/>
  <rect id="Rectangle_33" data-name="Rectangle 33" width="21.783" height="21.783" transform="translate(45.511 182.146)" fill="#d6d8e0"/>
  <rect id="Rectangle_34" data-name="Rectangle 34" width="45.639" height="4.149" transform="translate(80.553 184.191)" fill="#d6d8e0"/>
  <rect id="Rectangle_35" data-name="Rectangle 35" width="75.199" height="4.149" transform="translate(79.395 191.08)" fill="#d6d8e0"/>
  <rect id="Rectangle_36" data-name="Rectangle 36" width="75.199" height="4.149" transform="translate(79.395 197.971)" fill="#d6d8e0"/>
  <rect id="Rectangle_37" data-name="Rectangle 37" width="21.783" height="21.783" transform="translate(45.668 219.92)" fill="#d6d8e0"/>
  <rect id="Rectangle_38" data-name="Rectangle 38" width="45.639" height="4.149" transform="translate(80.709 222.083)" fill="#d6d8e0"/>
  <rect id="Rectangle_39" data-name="Rectangle 39" width="75.199" height="4.149" transform="translate(79.55 228.972)" fill="#d6d8e0"/>
  <rect id="Rectangle_40" data-name="Rectangle 40" width="75.199" height="4.149" transform="translate(79.55 235.862)" fill="#d6d8e0"/>
  <rect id="Rectangle_41" data-name="Rectangle 41" width="21.783" height="21.783" transform="translate(45.825 255.895)" fill="#d6d8e0"/>
  <rect id="Rectangle_42" data-name="Rectangle 42" width="45.639" height="4.149" transform="translate(80.866 257.451)" fill="#d6d8e0"/>
  <rect id="Rectangle_43" data-name="Rectangle 43" width="75.199" height="4.149" transform="translate(79.705 264.712)" fill="#d6d8e0"/>
  <rect id="Rectangle_44" data-name="Rectangle 44" width="75.199" height="4.149" transform="translate(79.705 271.973)" fill="#d6d8e0"/>
  <rect id="Rectangle_45" data-name="Rectangle 45" width="185.663" height="46.155" rx="8" transform="translate(0 92.723)" fill="url(#linear-gradient-2)"/>
  <rect id="Rectangle_46" data-name="Rectangle 46" width="184.106" height="44.082" rx="8" transform="translate(1.036 93.745)" fill="url(#linear-gradient-3)"/>
  <rect id="Rectangle_47" data-name="Rectangle 47" width="21.783" height="21.783" transform="translate(45.596 104.715)" fill="#fff" opacity="0.5"/>
  <g id="Group_20" data-name="Group 20" transform="translate(79.482 106.248)" opacity="0.5">
    <rect id="Rectangle_48" data-name="Rectangle 48" width="45.639" height="4.149" fill="#fff"/>
    <rect id="Rectangle_49" data-name="Rectangle 49" width="75.199" height="4.149" transform="translate(0 7.261)" fill="#fff"/>
    <rect id="Rectangle_50" data-name="Rectangle 50" width="75.199" height="4.149" transform="translate(0 14.522)" fill="#fff"/>
  </g>
</svg>
