<svg xmlns="http://www.w3.org/2000/svg" xmlns:xlink="http://www.w3.org/1999/xlink" width="98" height="98" viewBox="0 0 98 98">
  <defs>
    <filter id="Ellipse_23" x="0" y="0" width="98" height="98" filterUnits="userSpaceOnUse">
      <feOffset dy="3" input="SourceAlpha"/>
      <feGaussianBlur stdDeviation="3" result="blur"/>
      <feFlood flood-opacity="0.161"/>
      <feComposite operator="in" in2="blur"/>
      <feComposite in="SourceGraphic"/>
    </filter>
  </defs>
  <g id="Group_1962" data-name="Group 1962" transform="translate(-1703 -97.5)">
    <g transform="matrix(1, 0, 0, 1, 1703, 97.5)" filter="url(#Ellipse_23)">
      <circle id="Ellipse_23-2" data-name="Ellipse 23" cx="39.5" cy="39.5" r="39.5" transform="translate(9.5 6.5)" fill="#80298f" stroke="#fff" stroke-width="1"/>
    </g>
    <g id="Group_521" data-name="Group 521" transform="translate(1736.808 131.346)">
      <g id="Group_520" data-name="Group 520">
        <g id="Group_517" data-name="Group 517">
          <g id="Group_516" data-name="Group 516">
            <path id="Path_714" data-name="Path 714" d="M1778.7,168.308h-27.008A1.69,1.69,0,0,1,1750,166.62v-16.88a1.69,1.69,0,0,1,1.688-1.688h6.022l1.3-3.4a1.014,1.014,0,0,1,.946-.65h10.467a1.014,1.014,0,0,1,.946.65l1.3,3.4h6.022a1.69,1.69,0,0,1,1.688,1.688v16.88A1.69,1.69,0,0,1,1778.7,168.308Zm-26.67-2.026h26.333v-16.2h-6.381a1.014,1.014,0,0,1-.946-.65l-1.3-3.4h-9.074l-1.3,3.4a1.014,1.014,0,0,1-.946.65h-6.381Z" transform="translate(-1750 -144)" fill="#fff" stroke="#fff" stroke-width="1"/>
          </g>
        </g>
        <g id="Group_519" data-name="Group 519" transform="translate(8.069 6.246)">
          <g id="Group_518" data-name="Group 518">
            <path id="Path_715" data-name="Path 715" d="M1763.762,163.386a7.123,7.123,0,1,1,7.123-7.123A7.131,7.131,0,0,1,1763.762,163.386Zm0-12.221a5.1,5.1,0,1,0,5.1,5.1A5.1,5.1,0,0,0,1763.762,151.165Z" transform="translate(-1756.639 -149.139)" fill="#fff" stroke="#fff" stroke-width="1"/>
          </g>
        </g>
      </g>
    </g>
  </g>
</svg>
